Filename,Prediction
_0_1022.jpeg,LYMPHOCYTE
_0_1050.jpeg,LYMPHOCYTE
_0_1072.jpeg,LYMPHOCYTE
_0_112.jpeg,LYMPHOCYTE
_0_1123.jpeg,MONOCYTE
_0_1248.jpeg,LYMPHOCYTE
_0_1283.jpeg,NEUTROPHIL
_0_1338.jpeg,LYMPHOCYTE
_0_1381.jpeg,MONOCYTE
_0_1383.jpeg,MONOCYTE
_0_1423.jpeg,MONOCYTE
_0_1469.jpeg,EOSINOPHIL
_0_147.jpeg,EOSINOPHIL
_0_1523.jpeg,EOSINOPHIL
_0_1526.jpeg,MONOCYTE
_0_1559.jpeg,MONOCYTE
_0_1588.jpeg,MONOCYTE
_0_1616.jpeg,EOSINOPHIL
_0_1663.jpeg,MONOCYTE
_0_1673.jpeg,MONOCYTE
_0_1725.jpeg,MONOCYTE
_0_1740.jpeg,LYMPHOCYTE
_0_1767.jpeg,LYMPHOCYTE
_0_1771.jpeg,MONOCYTE
_0_1794.jpeg,NEUTROPHIL
_0_1805.jpeg,NEUTROPHIL
_0_1845.jpeg,EOSINOPHIL
_0_1854.jpeg,LYMPHOCYTE
_0_187.jpeg,NEUTROPHIL
_0_1897.jpeg,NEUTROPHIL
_0_1927.jpeg,MONOCYTE
_0_1940.jpeg,MONOCYTE
_0_1958.jpeg,MONOCYTE
_0_196.jpeg,EOSINOPHIL
_0_1970.jpeg,MONOCYTE
_0_1972.jpeg,MONOCYTE
_0_200.jpeg,MONOCYTE
_0_208.jpeg,NEUTROPHIL
_0_2094.jpeg,MONOCYTE
_0_2102.jpeg,MONOCYTE
_0_2104.jpeg,MONOCYTE
_0_2107.jpeg,EOSINOPHIL
_0_2183.jpeg,EOSINOPHIL
_0_222.jpeg,NEUTROPHIL
_0_2222.jpeg,MONOCYTE
_0_224.jpeg,MONOCYTE
_0_2276.jpeg,NEUTROPHIL
_0_2278.jpeg,MONOCYTE
_0_2295.jpeg,LYMPHOCYTE
_0_2306.jpeg,MONOCYTE
_0_2313.jpeg,EOSINOPHIL
_0_2324.jpeg,MONOCYTE
_0_2343.jpeg,MONOCYTE
_0_2384.jpeg,NEUTROPHIL
_0_2399.jpeg,NEUTROPHIL
_0_2424.jpeg,MONOCYTE
_0_2455.jpeg,MONOCYTE
_0_2498.jpeg,EOSINOPHIL
_0_2506.jpeg,MONOCYTE
_0_2508.jpeg,NEUTROPHIL
_0_251.jpeg,MONOCYTE
_0_257.jpeg,MONOCYTE
_0_2572.jpeg,NEUTROPHIL
_0_2599.jpeg,LYMPHOCYTE
_0_2634.jpeg,EOSINOPHIL
_0_2680.jpeg,MONOCYTE
_0_2789.jpeg,EOSINOPHIL
_0_283.jpeg,MONOCYTE
_0_2844.jpeg,NEUTROPHIL
_0_2852.jpeg,MONOCYTE
_0_2900.jpeg,MONOCYTE
_0_2963.jpeg,EOSINOPHIL
_0_3013.jpeg,MONOCYTE
_0_3015.jpeg,LYMPHOCYTE
_0_3049.jpeg,MONOCYTE
_0_3066.jpeg,NEUTROPHIL
_0_3083.jpeg,EOSINOPHIL
_0_3101.jpeg,NEUTROPHIL
_0_3102.jpeg,MONOCYTE
_0_3107.jpeg,LYMPHOCYTE
_0_3157.jpeg,MONOCYTE
_0_3165.jpeg,MONOCYTE
_0_3206.jpeg,LYMPHOCYTE
_0_3210.jpeg,MONOCYTE
_0_322.jpeg,MONOCYTE
_0_3249.jpeg,EOSINOPHIL
_0_3271.jpeg,LYMPHOCYTE
_0_3295.jpeg,LYMPHOCYTE
_0_33.jpeg,LYMPHOCYTE
_0_3329.jpeg,LYMPHOCYTE
_0_3337.jpeg,LYMPHOCYTE
_0_3339.jpeg,MONOCYTE
_0_3355.jpeg,MONOCYTE
_0_3366.jpeg,MONOCYTE
_0_3396.jpeg,LYMPHOCYTE
_0_3409.jpeg,LYMPHOCYTE
_0_3464.jpeg,MONOCYTE
_0_348.jpeg,MONOCYTE
_0_3510.jpeg,MONOCYTE
_0_353.jpeg,LYMPHOCYTE
_0_3531.jpeg,LYMPHOCYTE
_0_3544.jpeg,NEUTROPHIL
_0_3551.jpeg,LYMPHOCYTE
_0_3577.jpeg,LYMPHOCYTE
_0_3645.jpeg,LYMPHOCYTE
_0_373.jpeg,MONOCYTE
_0_3809.jpeg,EOSINOPHIL
_0_3859.jpeg,EOSINOPHIL
_0_3962.jpeg,LYMPHOCYTE
_0_3977.jpeg,LYMPHOCYTE
_0_3988.jpeg,LYMPHOCYTE
_0_4009.jpeg,MONOCYTE
_0_4018.jpeg,NEUTROPHIL
_0_4025.jpeg,MONOCYTE
_0_4055.jpeg,MONOCYTE
_0_4073.jpeg,NEUTROPHIL
_0_4102.jpeg,LYMPHOCYTE
_0_4130.jpeg,EOSINOPHIL
_0_4161.jpeg,LYMPHOCYTE
_0_4170.jpeg,NEUTROPHIL
_0_4192.jpeg,LYMPHOCYTE
_0_4212.jpeg,MONOCYTE
_0_4279.jpeg,LYMPHOCYTE
_0_430.jpeg,LYMPHOCYTE
_0_4342.jpeg,LYMPHOCYTE
_0_4354.jpeg,EOSINOPHIL
_0_4406.jpeg,LYMPHOCYTE
_0_4414.jpeg,LYMPHOCYTE
_0_4466.jpeg,LYMPHOCYTE
_0_4480.jpeg,MONOCYTE
_0_4518.jpeg,LYMPHOCYTE
_0_4574.jpeg,LYMPHOCYTE
_0_463.jpeg,EOSINOPHIL
_0_4632.jpeg,MONOCYTE
_0_4655.jpeg,LYMPHOCYTE
_0_4671.jpeg,LYMPHOCYTE
_0_4703.jpeg,LYMPHOCYTE
_0_4707.jpeg,MONOCYTE
_0_4719.jpeg,MONOCYTE
_0_4740.jpeg,LYMPHOCYTE
_0_4930.jpeg,EOSINOPHIL
_0_4942.jpeg,NEUTROPHIL
_0_495.jpeg,MONOCYTE
_0_4973.jpeg,LYMPHOCYTE
_0_4999.jpeg,LYMPHOCYTE
_0_5032.jpeg,MONOCYTE
_0_5055.jpeg,LYMPHOCYTE
_0_5100.jpeg,LYMPHOCYTE
_0_5159.jpeg,MONOCYTE
_0_5189.jpeg,NEUTROPHIL
_0_5196.jpeg,MONOCYTE
_0_5215.jpeg,NEUTROPHIL
_0_5219.jpeg,MONOCYTE
_0_522.jpeg,LYMPHOCYTE
_0_5221.jpeg,MONOCYTE
_0_5239.jpeg,MONOCYTE
_0_5263.jpeg,LYMPHOCYTE
_0_529.jpeg,LYMPHOCYTE
_0_531.jpeg,MONOCYTE
_0_5372.jpeg,MONOCYTE
_0_5398.jpeg,LYMPHOCYTE
_0_5427.jpeg,LYMPHOCYTE
_0_5486.jpeg,LYMPHOCYTE
_0_5569.jpeg,NEUTROPHIL
_0_5601.jpeg,MONOCYTE
_0_5642.jpeg,EOSINOPHIL
_0_5656.jpeg,MONOCYTE
_0_5667.jpeg,NEUTROPHIL
_0_5709.jpeg,EOSINOPHIL
_0_5723.jpeg,MONOCYTE
_0_5733.jpeg,EOSINOPHIL
_0_5743.jpeg,MONOCYTE
_0_5760.jpeg,LYMPHOCYTE
_0_582.jpeg,LYMPHOCYTE
_0_5824.jpeg,LYMPHOCYTE
_0_5839.jpeg,NEUTROPHIL
_0_5845.jpeg,LYMPHOCYTE
_0_586.jpeg,EOSINOPHIL
_0_5963.jpeg,MONOCYTE
_0_5967.jpeg,MONOCYTE
_0_5974.jpeg,EOSINOPHIL
_0_5988.jpeg,EOSINOPHIL
_0_601.jpeg,LYMPHOCYTE
_0_6039.jpeg,MONOCYTE
_0_6052.jpeg,EOSINOPHIL
_0_6053.jpeg,LYMPHOCYTE
_0_6130.jpeg,NEUTROPHIL
_0_6168.jpeg,LYMPHOCYTE
_0_6177.jpeg,LYMPHOCYTE
_0_6209.jpeg,LYMPHOCYTE
_0_6243.jpeg,EOSINOPHIL
_0_6253.jpeg,LYMPHOCYTE
_0_6273.jpeg,MONOCYTE
_0_6305.jpeg,MONOCYTE
_0_6354.jpeg,EOSINOPHIL
_0_6416.jpeg,LYMPHOCYTE
_0_6428.jpeg,LYMPHOCYTE
_0_6431.jpeg,NEUTROPHIL
_0_6479.jpeg,MONOCYTE
_0_651.jpeg,MONOCYTE
_0_6529.jpeg,MONOCYTE
_0_6537.jpeg,NEUTROPHIL
_0_6544.jpeg,EOSINOPHIL
_0_6581.jpeg,LYMPHOCYTE
_0_6589.jpeg,LYMPHOCYTE
_0_6600.jpeg,MONOCYTE
_0_668.jpeg,NEUTROPHIL
_0_670.jpeg,MONOCYTE
_0_6711.jpeg,NEUTROPHIL
_0_6727.jpeg,MONOCYTE
_0_6761.jpeg,MONOCYTE
_0_687.jpeg,LYMPHOCYTE
_0_6878.jpeg,EOSINOPHIL
_0_6920.jpeg,MONOCYTE
_0_6954.jpeg,LYMPHOCYTE
_0_6955.jpeg,LYMPHOCYTE
_0_7022.jpeg,EOSINOPHIL
_0_7040.jpeg,LYMPHOCYTE
_0_7042.jpeg,MONOCYTE
_0_7049.jpeg,LYMPHOCYTE
_0_7059.jpeg,MONOCYTE
_0_7123.jpeg,LYMPHOCYTE
_0_7231.jpeg,MONOCYTE
_0_7238.jpeg,LYMPHOCYTE
_0_7251.jpeg,MONOCYTE
_0_7288.jpeg,LYMPHOCYTE
_0_7306.jpeg,MONOCYTE
_0_7320.jpeg,LYMPHOCYTE
_0_7369.jpeg,MONOCYTE
_0_737.jpeg,EOSINOPHIL
_0_7375.jpeg,NEUTROPHIL
_0_7427.jpeg,NEUTROPHIL
_0_7577.jpeg,MONOCYTE
_0_7604.jpeg,EOSINOPHIL
_0_7630.jpeg,LYMPHOCYTE
_0_768.jpeg,EOSINOPHIL
_0_7683.jpeg,MONOCYTE
_0_771.jpeg,LYMPHOCYTE
_0_7764.jpeg,EOSINOPHIL
_0_7840.jpeg,EOSINOPHIL
_0_7844.jpeg,MONOCYTE
_0_7845.jpeg,EOSINOPHIL
_0_7945.jpeg,MONOCYTE
_0_7946.jpeg,LYMPHOCYTE
_0_8005.jpeg,NEUTROPHIL
_0_8019.jpeg,LYMPHOCYTE
_0_8068.jpeg,MONOCYTE
_0_8130.jpeg,MONOCYTE
_0_8167.jpeg,EOSINOPHIL
_0_8201.jpeg,EOSINOPHIL
_0_8222.jpeg,EOSINOPHIL
_0_8254.jpeg,EOSINOPHIL
_0_8267.jpeg,LYMPHOCYTE
_0_8326.jpeg,MONOCYTE
_0_8332.jpeg,NEUTROPHIL
_0_8342.jpeg,MONOCYTE
_0_8351.jpeg,MONOCYTE
_0_8379.jpeg,LYMPHOCYTE
_0_8473.jpeg,EOSINOPHIL
_0_8495.jpeg,MONOCYTE
_0_8508.jpeg,MONOCYTE
_0_852.jpeg,EOSINOPHIL
_0_8566.jpeg,NEUTROPHIL
_0_8594.jpeg,MONOCYTE
_0_8611.jpeg,EOSINOPHIL
_0_8625.jpeg,LYMPHOCYTE
_0_8678.jpeg,MONOCYTE
_0_8705.jpeg,MONOCYTE
_0_8718.jpeg,EOSINOPHIL
_0_872.jpeg,LYMPHOCYTE
_0_8753.jpeg,LYMPHOCYTE
_0_8823.jpeg,LYMPHOCYTE
_0_8829.jpeg,EOSINOPHIL
_0_884.jpeg,EOSINOPHIL
_0_8842.jpeg,LYMPHOCYTE
_0_8881.jpeg,EOSINOPHIL
_0_8941.jpeg,MONOCYTE
_0_8961.jpeg,MONOCYTE
_0_898.jpeg,NEUTROPHIL
_0_8981.jpeg,MONOCYTE
_0_900.jpeg,MONOCYTE
_0_9003.jpeg,MONOCYTE
_0_9026.jpeg,LYMPHOCYTE
_0_9029.jpeg,LYMPHOCYTE
_0_9051.jpeg,LYMPHOCYTE
_0_9089.jpeg,MONOCYTE
_0_9102.jpeg,LYMPHOCYTE
_0_9163.jpeg,LYMPHOCYTE
_0_9170.jpeg,EOSINOPHIL
_0_918.jpeg,MONOCYTE
_0_9200.jpeg,MONOCYTE
_0_9274.jpeg,LYMPHOCYTE
_0_9294.jpeg,EOSINOPHIL
_0_9317.jpeg,LYMPHOCYTE
_0_9329.jpeg,MONOCYTE
_0_9339.jpeg,MONOCYTE
_0_9384.jpeg,LYMPHOCYTE
_0_9388.jpeg,LYMPHOCYTE
_0_9436.jpeg,MONOCYTE
_0_9442.jpeg,MONOCYTE
_0_9470.jpeg,LYMPHOCYTE
_0_9477.jpeg,LYMPHOCYTE
_0_9500.jpeg,MONOCYTE
_0_9550.jpeg,MONOCYTE
_0_9568.jpeg,LYMPHOCYTE
_0_9587.jpeg,LYMPHOCYTE
_0_9609.jpeg,NEUTROPHIL
_0_9620.jpeg,EOSINOPHIL
_0_9655.jpeg,LYMPHOCYTE
_0_967.jpeg,EOSINOPHIL
_0_9671.jpeg,LYMPHOCYTE
_0_9763.jpeg,EOSINOPHIL
_0_9768.jpeg,MONOCYTE
_0_9837.jpeg,LYMPHOCYTE
_0_9843.jpeg,MONOCYTE
_0_9860.jpeg,MONOCYTE
_0_9868.jpeg,LYMPHOCYTE
_0_9876.jpeg,EOSINOPHIL
_0_994.jpeg,MONOCYTE
_0_9950.jpeg,MONOCYTE
_0_9965.jpeg,MONOCYTE
_0_9976.jpeg,NEUTROPHIL
_0_9980.jpeg,MONOCYTE
_10_1098.jpeg,NEUTROPHIL
_10_1104.jpeg,EOSINOPHIL
_10_1245.jpeg,NEUTROPHIL
_10_1367.jpeg,EOSINOPHIL
_10_1381.jpeg,NEUTROPHIL
_10_141.jpeg,EOSINOPHIL
_10_1626.jpeg,EOSINOPHIL
_10_1830.jpeg,EOSINOPHIL
_10_2029.jpeg,EOSINOPHIL
_10_2081.jpeg,NEUTROPHIL
_10_2539.jpeg,EOSINOPHIL
_10_2893.jpeg,EOSINOPHIL
_10_2897.jpeg,EOSINOPHIL
_10_2988.jpeg,EOSINOPHIL
_10_3313.jpeg,EOSINOPHIL
_10_3363.jpeg,EOSINOPHIL
_10_3818.jpeg,EOSINOPHIL
_10_4000.jpeg,EOSINOPHIL
_10_4371.jpeg,EOSINOPHIL
_10_4604.jpeg,EOSINOPHIL
_10_4616.jpeg,EOSINOPHIL
_10_5047.jpeg,EOSINOPHIL
_10_5177.jpeg,EOSINOPHIL
_10_5307.jpeg,EOSINOPHIL
_10_5605.jpeg,EOSINOPHIL
_10_5693.jpeg,EOSINOPHIL
_10_6140.jpeg,NEUTROPHIL
_10_6324.jpeg,EOSINOPHIL
_10_633.jpeg,EOSINOPHIL
_10_6428.jpeg,EOSINOPHIL
_10_6506.jpeg,EOSINOPHIL
_10_6590.jpeg,EOSINOPHIL
_10_6756.jpeg,EOSINOPHIL
_10_6766.jpeg,EOSINOPHIL
_10_6786.jpeg,EOSINOPHIL
_10_6787.jpeg,EOSINOPHIL
_10_6868.jpeg,EOSINOPHIL
_10_6993.jpeg,EOSINOPHIL
_10_7018.jpeg,EOSINOPHIL
_10_7114.jpeg,EOSINOPHIL
_10_7138.jpeg,EOSINOPHIL
_10_7356.jpeg,EOSINOPHIL
_10_7467.jpeg,EOSINOPHIL
_10_7495.jpeg,EOSINOPHIL
_10_7638.jpeg,EOSINOPHIL
_10_772.jpeg,EOSINOPHIL
_10_7851.jpeg,EOSINOPHIL
_10_7860.jpeg,NEUTROPHIL
_10_7876.jpeg,EOSINOPHIL
_10_7976.jpeg,EOSINOPHIL
_10_8176.jpeg,EOSINOPHIL
_10_8848.jpeg,EOSINOPHIL
_10_8861.jpeg,EOSINOPHIL
_10_8882.jpeg,EOSINOPHIL
_10_9014.jpeg,EOSINOPHIL
_10_9112.jpeg,EOSINOPHIL
_10_940.jpeg,NEUTROPHIL
_10_9457.jpeg,EOSINOPHIL
_10_9503.jpeg,NEUTROPHIL
_10_9994.jpeg,NEUTROPHIL
_11_1034.jpeg,EOSINOPHIL
_11_148.jpeg,EOSINOPHIL
_11_168.jpeg,EOSINOPHIL
_11_1706.jpeg,EOSINOPHIL
_11_1762.jpeg,NEUTROPHIL
_11_1893.jpeg,NEUTROPHIL
_11_2036.jpeg,EOSINOPHIL
_11_204.jpeg,EOSINOPHIL
_11_2463.jpeg,EOSINOPHIL
_11_2469.jpeg,EOSINOPHIL
_11_2597.jpeg,NEUTROPHIL
_11_3152.jpeg,EOSINOPHIL
_11_3170.jpeg,EOSINOPHIL
_11_3319.jpeg,EOSINOPHIL
_11_3423.jpeg,EOSINOPHIL
_11_3599.jpeg,NEUTROPHIL
_11_3607.jpeg,EOSINOPHIL
_11_3626.jpeg,NEUTROPHIL
_11_3679.jpeg,NEUTROPHIL
_11_3812.jpeg,NEUTROPHIL
_11_4744.jpeg,EOSINOPHIL
_11_4829.jpeg,EOSINOPHIL
_11_5.jpeg,EOSINOPHIL
_11_5272.jpeg,NEUTROPHIL
_11_5512.jpeg,EOSINOPHIL
_11_5530.jpeg,NEUTROPHIL
_11_5647.jpeg,NEUTROPHIL
_11_573.jpeg,EOSINOPHIL
_11_6121.jpeg,NEUTROPHIL
_11_6141.jpeg,EOSINOPHIL
_11_6509.jpeg,EOSINOPHIL
_11_6536.jpeg,NEUTROPHIL
_11_6586.jpeg,EOSINOPHIL
_11_6636.jpeg,NEUTROPHIL
_11_6650.jpeg,NEUTROPHIL
_11_6693.jpeg,EOSINOPHIL
_11_6757.jpeg,EOSINOPHIL
_11_6857.jpeg,EOSINOPHIL
_11_709.jpeg,EOSINOPHIL
_11_7189.jpeg,EOSINOPHIL
_11_7296.jpeg,EOSINOPHIL
_11_755.jpeg,EOSINOPHIL
_11_7653.jpeg,EOSINOPHIL
_11_7956.jpeg,EOSINOPHIL
_11_8032.jpeg,EOSINOPHIL
_11_8316.jpeg,EOSINOPHIL
_11_8605.jpeg,NEUTROPHIL
_11_8636.jpeg,EOSINOPHIL
_11_8743.jpeg,EOSINOPHIL
_11_9024.jpeg,EOSINOPHIL
_11_9067.jpeg,EOSINOPHIL
_11_9324.jpeg,EOSINOPHIL
_11_9385.jpeg,EOSINOPHIL
_11_942.jpeg,NEUTROPHIL
_11_9497.jpeg,EOSINOPHIL
_11_9606.jpeg,EOSINOPHIL
_11_9643.jpeg,EOSINOPHIL
_11_9684.jpeg,EOSINOPHIL
_11_9786.jpeg,EOSINOPHIL
_11_9804.jpeg,EOSINOPHIL
_11_9887.jpeg,EOSINOPHIL
_12_0.jpeg,EOSINOPHIL
_12_1091.jpeg,EOSINOPHIL
_12_1303.jpeg,EOSINOPHIL
_12_1372.jpeg,NEUTROPHIL
_12_1428.jpeg,EOSINOPHIL
_12_1554.jpeg,EOSINOPHIL
_12_1610.jpeg,EOSINOPHIL
_12_1668.jpeg,EOSINOPHIL
_12_1980.jpeg,NEUTROPHIL
_12_205.jpeg,EOSINOPHIL
_12_2342.jpeg,EOSINOPHIL
_12_2378.jpeg,EOSINOPHIL
_12_2782.jpeg,EOSINOPHIL
_12_3238.jpeg,EOSINOPHIL
_12_3802.jpeg,NEUTROPHIL
_12_3942.jpeg,NEUTROPHIL
_12_4205.jpeg,EOSINOPHIL
_12_4394.jpeg,NEUTROPHIL
_12_4556.jpeg,EOSINOPHIL
_12_4563.jpeg,EOSINOPHIL
_12_4884.jpeg,NEUTROPHIL
_12_4896.jpeg,EOSINOPHIL
_12_4978.jpeg,EOSINOPHIL
_12_5324.jpeg,EOSINOPHIL
_12_5413.jpeg,NEUTROPHIL
_12_5701.jpeg,NEUTROPHIL
_12_607.jpeg,EOSINOPHIL
_12_6466.jpeg,EOSINOPHIL
_12_6605.jpeg,EOSINOPHIL
_12_6791.jpeg,EOSINOPHIL
_12_7159.jpeg,EOSINOPHIL
_12_7420.jpeg,NEUTROPHIL
_12_7458.jpeg,EOSINOPHIL
_12_7544.jpeg,EOSINOPHIL
_12_7634.jpeg,EOSINOPHIL
_12_7885.jpeg,NEUTROPHIL
_12_7914.jpeg,EOSINOPHIL
_12_7926.jpeg,EOSINOPHIL
_12_7987.jpeg,EOSINOPHIL
_12_8079.jpeg,EOSINOPHIL
_12_827.jpeg,EOSINOPHIL
_12_8304.jpeg,EOSINOPHIL
_12_8310.jpeg,NEUTROPHIL
_12_8624.jpeg,EOSINOPHIL
_12_8639.jpeg,EOSINOPHIL
_12_8657.jpeg,EOSINOPHIL
_12_8668.jpeg,EOSINOPHIL
_12_8711.jpeg,NEUTROPHIL
_12_8776.jpeg,EOSINOPHIL
_12_8802.jpeg,EOSINOPHIL
_12_8962.jpeg,EOSINOPHIL
_12_8969.jpeg,EOSINOPHIL
_12_9026.jpeg,EOSINOPHIL
_12_9078.jpeg,EOSINOPHIL
_12_9289.jpeg,EOSINOPHIL
_12_9445.jpeg,EOSINOPHIL
_12_9486.jpeg,EOSINOPHIL
_12_9706.jpeg,EOSINOPHIL
_12_9759.jpeg,EOSINOPHIL
_12_9974.jpeg,EOSINOPHIL
_13_1803.jpeg,NEUTROPHIL
_13_2814.jpeg,NEUTROPHIL
_13_2906.jpeg,NEUTROPHIL
_13_3271.jpeg,NEUTROPHIL
_13_3505.jpeg,NEUTROPHIL
_13_3538.jpeg,NEUTROPHIL
_13_4506.jpeg,NEUTROPHIL
_13_6397.jpeg,NEUTROPHIL
_13_753.jpeg,NEUTROPHIL
_13_8542.jpeg,NEUTROPHIL
_13_9263.jpeg,NEUTROPHIL
_13_9474.jpeg,NEUTROPHIL
_13_9558.jpeg,NEUTROPHIL
_14_1066.jpeg,NEUTROPHIL
_14_1266.jpeg,NEUTROPHIL
_14_1995.jpeg,NEUTROPHIL
_14_2034.jpeg,NEUTROPHIL
_14_2192.jpeg,NEUTROPHIL
_14_2888.jpeg,NEUTROPHIL
_14_3469.jpeg,EOSINOPHIL
_14_3481.jpeg,NEUTROPHIL
_14_6287.jpeg,NEUTROPHIL
_14_6680.jpeg,NEUTROPHIL
_14_7967.jpeg,NEUTROPHIL
_14_8330.jpeg,NEUTROPHIL
_14_8723.jpeg,NEUTROPHIL
_15_1163.jpeg,NEUTROPHIL
_15_143.jpeg,NEUTROPHIL
_15_29.jpeg,NEUTROPHIL
_15_3154.jpeg,NEUTROPHIL
_15_434.jpeg,NEUTROPHIL
_15_5210.jpeg,NEUTROPHIL
_15_5763.jpeg,NEUTROPHIL
_15_618.jpeg,NEUTROPHIL
_15_6973.jpeg,NEUTROPHIL
_15_733.jpeg,NEUTROPHIL
_15_8486.jpeg,NEUTROPHIL
_15_879.jpeg,NEUTROPHIL
_15_9327.jpeg,NEUTROPHIL
_16_3455.jpeg,NEUTROPHIL
_16_3493.jpeg,NEUTROPHIL
_16_3624.jpeg,NEUTROPHIL
_16_4544.jpeg,NEUTROPHIL
_16_4658.jpeg,EOSINOPHIL
_16_4837.jpeg,NEUTROPHIL
_16_5422.jpeg,EOSINOPHIL
_16_5914.jpeg,NEUTROPHIL
_16_6249.jpeg,NEUTROPHIL
_16_6767.jpeg,EOSINOPHIL
_16_8828.jpeg,NEUTROPHIL
_16_8929.jpeg,EOSINOPHIL
_16_940.jpeg,NEUTROPHIL
_17_1000.jpeg,NEUTROPHIL
_17_101.jpeg,EOSINOPHIL
_17_1148.jpeg,EOSINOPHIL
_17_1497.jpeg,NEUTROPHIL
_17_2485.jpeg,EOSINOPHIL
_17_4276.jpeg,NEUTROPHIL
_17_5332.jpeg,NEUTROPHIL
_17_6440.jpeg,NEUTROPHIL
_17_7942.jpeg,NEUTROPHIL
_17_8007.jpeg,NEUTROPHIL
_17_8045.jpeg,EOSINOPHIL
_17_8298.jpeg,NEUTROPHIL
_17_8718.jpeg,NEUTROPHIL
_18_1037.jpeg,NEUTROPHIL
_18_1601.jpeg,NEUTROPHIL
_18_171.jpeg,NEUTROPHIL
_18_1836.jpeg,NEUTROPHIL
_18_311.jpeg,NEUTROPHIL
_18_3495.jpeg,NEUTROPHIL
_18_4038.jpeg,EOSINOPHIL
_18_5481.jpeg,NEUTROPHIL
_18_8791.jpeg,NEUTROPHIL
_18_9264.jpeg,NEUTROPHIL
_18_9269.jpeg,NEUTROPHIL
_18_963.jpeg,NEUTROPHIL
_18_9725.jpeg,NEUTROPHIL
_19_1390.jpeg,NEUTROPHIL
_19_1523.jpeg,NEUTROPHIL
_19_1991.jpeg,NEUTROPHIL
_19_2612.jpeg,NEUTROPHIL
_19_2832.jpeg,NEUTROPHIL
_19_306.jpeg,EOSINOPHIL
_19_3214.jpeg,NEUTROPHIL
_19_3640.jpeg,NEUTROPHIL
_19_4238.jpeg,NEUTROPHIL
_19_4380.jpeg,NEUTROPHIL
_19_5311.jpeg,NEUTROPHIL
_19_7457.jpeg,NEUTROPHIL
_19_8479.jpeg,NEUTROPHIL
_1_1031.jpeg,NEUTROPHIL
_1_1042.jpeg,LYMPHOCYTE
_1_1054.jpeg,MONOCYTE
_1_1112.jpeg,MONOCYTE
_1_112.jpeg,LYMPHOCYTE
_1_1151.jpeg,LYMPHOCYTE
_1_1157.jpeg,MONOCYTE
_1_1359.jpeg,MONOCYTE
_1_1398.jpeg,MONOCYTE
_1_1407.jpeg,MONOCYTE
_1_1414.jpeg,EOSINOPHIL
_1_1484.jpeg,EOSINOPHIL
_1_157.jpeg,LYMPHOCYTE
_1_1575.jpeg,NEUTROPHIL
_1_16.jpeg,EOSINOPHIL
_1_1650.jpeg,MONOCYTE
_1_1651.jpeg,LYMPHOCYTE
_1_1668.jpeg,EOSINOPHIL
_1_1686.jpeg,MONOCYTE
_1_1689.jpeg,MONOCYTE
_1_1704.jpeg,NEUTROPHIL
_1_1708.jpeg,LYMPHOCYTE
_1_1742.jpeg,LYMPHOCYTE
_1_1743.jpeg,MONOCYTE
_1_178.jpeg,MONOCYTE
_1_1872.jpeg,LYMPHOCYTE
_1_1874.jpeg,NEUTROPHIL
_1_1884.jpeg,LYMPHOCYTE
_1_1966.jpeg,MONOCYTE
_1_1980.jpeg,LYMPHOCYTE
_1_2023.jpeg,LYMPHOCYTE
_1_2090.jpeg,EOSINOPHIL
_1_2109.jpeg,LYMPHOCYTE
_1_212.jpeg,EOSINOPHIL
_1_2161.jpeg,MONOCYTE
_1_2250.jpeg,LYMPHOCYTE
_1_2259.jpeg,NEUTROPHIL
_1_2281.jpeg,NEUTROPHIL
_1_2292.jpeg,EOSINOPHIL
_1_2312.jpeg,MONOCYTE
_1_2319.jpeg,NEUTROPHIL
_1_2388.jpeg,LYMPHOCYTE
_1_2434.jpeg,LYMPHOCYTE
_1_2500.jpeg,NEUTROPHIL
_1_2525.jpeg,EOSINOPHIL
_1_2543.jpeg,MONOCYTE
_1_2573.jpeg,MONOCYTE
_1_2577.jpeg,NEUTROPHIL
_1_2584.jpeg,LYMPHOCYTE
_1_2592.jpeg,LYMPHOCYTE
_1_2609.jpeg,NEUTROPHIL
_1_2697.jpeg,LYMPHOCYTE
_1_2728.jpeg,EOSINOPHIL
_1_2746.jpeg,MONOCYTE
_1_276.jpeg,LYMPHOCYTE
_1_2780.jpeg,MONOCYTE
_1_2838.jpeg,MONOCYTE
_1_2843.jpeg,EOSINOPHIL
_1_2875.jpeg,MONOCYTE
_1_2954.jpeg,NEUTROPHIL
_1_2989.jpeg,LYMPHOCYTE
_1_30.jpeg,NEUTROPHIL
_1_3076.jpeg,MONOCYTE
_1_3093.jpeg,LYMPHOCYTE
_1_3101.jpeg,NEUTROPHIL
_1_3103.jpeg,LYMPHOCYTE
_1_3147.jpeg,NEUTROPHIL
_1_3150.jpeg,EOSINOPHIL
_1_3174.jpeg,LYMPHOCYTE
_1_318.jpeg,LYMPHOCYTE
_1_3184.jpeg,LYMPHOCYTE
_1_3280.jpeg,NEUTROPHIL
_1_3283.jpeg,MONOCYTE
_1_3291.jpeg,NEUTROPHIL
_1_3309.jpeg,MONOCYTE
_1_331.jpeg,LYMPHOCYTE
_1_3313.jpeg,MONOCYTE
_1_3357.jpeg,LYMPHOCYTE
_1_3381.jpeg,LYMPHOCYTE
_1_3429.jpeg,LYMPHOCYTE
_1_3444.jpeg,EOSINOPHIL
_1_3475.jpeg,LYMPHOCYTE
_1_3504.jpeg,LYMPHOCYTE
_1_3635.jpeg,LYMPHOCYTE
_1_3670.jpeg,EOSINOPHIL
_1_3681.jpeg,MONOCYTE
_1_3685.jpeg,NEUTROPHIL
_1_3694.jpeg,MONOCYTE
_1_3759.jpeg,MONOCYTE
_1_3784.jpeg,MONOCYTE
_1_3819.jpeg,LYMPHOCYTE
_1_3823.jpeg,LYMPHOCYTE
_1_3827.jpeg,MONOCYTE
_1_3837.jpeg,EOSINOPHIL
_1_385.jpeg,LYMPHOCYTE
_1_3860.jpeg,NEUTROPHIL
_1_388.jpeg,LYMPHOCYTE
_1_3906.jpeg,NEUTROPHIL
_1_3950.jpeg,LYMPHOCYTE
_1_3972.jpeg,LYMPHOCYTE
_1_4036.jpeg,LYMPHOCYTE
_1_4039.jpeg,EOSINOPHIL
_1_4087.jpeg,MONOCYTE
_1_409.jpeg,MONOCYTE
_1_4100.jpeg,EOSINOPHIL
_1_4134.jpeg,MONOCYTE
_1_4183.jpeg,MONOCYTE
_1_4221.jpeg,MONOCYTE
_1_4266.jpeg,LYMPHOCYTE
_1_4271.jpeg,NEUTROPHIL
_1_4272.jpeg,MONOCYTE
_1_4299.jpeg,LYMPHOCYTE
_1_4339.jpeg,MONOCYTE
_1_4342.jpeg,EOSINOPHIL
_1_4379.jpeg,LYMPHOCYTE
_1_4441.jpeg,MONOCYTE
_1_4450.jpeg,MONOCYTE
_1_4509.jpeg,LYMPHOCYTE
_1_4526.jpeg,EOSINOPHIL
_1_4573.jpeg,NEUTROPHIL
_1_4617.jpeg,LYMPHOCYTE
_1_4642.jpeg,MONOCYTE
_1_4662.jpeg,LYMPHOCYTE
_1_4689.jpeg,LYMPHOCYTE
_1_473.jpeg,MONOCYTE
_1_4770.jpeg,EOSINOPHIL
_1_4808.jpeg,MONOCYTE
_1_4923.jpeg,MONOCYTE
_1_4931.jpeg,NEUTROPHIL
_1_4966.jpeg,EOSINOPHIL
_1_497.jpeg,EOSINOPHIL
_1_5001.jpeg,LYMPHOCYTE
_1_5005.jpeg,MONOCYTE
_1_5016.jpeg,NEUTROPHIL
_1_5121.jpeg,LYMPHOCYTE
_1_5127.jpeg,LYMPHOCYTE
_1_514.jpeg,MONOCYTE
_1_5148.jpeg,MONOCYTE
_1_52.jpeg,LYMPHOCYTE
_1_5210.jpeg,MONOCYTE
_1_5224.jpeg,LYMPHOCYTE
_1_5232.jpeg,MONOCYTE
_1_5234.jpeg,LYMPHOCYTE
_1_5237.jpeg,NEUTROPHIL
_1_5295.jpeg,MONOCYTE
_1_5374.jpeg,MONOCYTE
_1_5377.jpeg,MONOCYTE
_1_5380.jpeg,MONOCYTE
_1_5389.jpeg,EOSINOPHIL
_1_5434.jpeg,EOSINOPHIL
_1_5451.jpeg,EOSINOPHIL
_1_5471.jpeg,LYMPHOCYTE
_1_5497.jpeg,EOSINOPHIL
_1_5515.jpeg,MONOCYTE
_1_5549.jpeg,LYMPHOCYTE
_1_5562.jpeg,LYMPHOCYTE
_1_5596.jpeg,NEUTROPHIL
_1_566.jpeg,NEUTROPHIL
_1_5667.jpeg,LYMPHOCYTE
_1_5668.jpeg,LYMPHOCYTE
_1_5677.jpeg,LYMPHOCYTE
_1_5682.jpeg,LYMPHOCYTE
_1_5776.jpeg,LYMPHOCYTE
_1_5818.jpeg,MONOCYTE
_1_5828.jpeg,LYMPHOCYTE
_1_5875.jpeg,LYMPHOCYTE
_1_5886.jpeg,NEUTROPHIL
_1_601.jpeg,LYMPHOCYTE
_1_6014.jpeg,MONOCYTE
_1_6016.jpeg,NEUTROPHIL
_1_6075.jpeg,LYMPHOCYTE
_1_6080.jpeg,MONOCYTE
_1_6092.jpeg,NEUTROPHIL
_1_6095.jpeg,EOSINOPHIL
_1_6159.jpeg,MONOCYTE
_1_6162.jpeg,LYMPHOCYTE
_1_6194.jpeg,MONOCYTE
_1_6201.jpeg,MONOCYTE
_1_6207.jpeg,MONOCYTE
_1_621.jpeg,EOSINOPHIL
_1_623.jpeg,NEUTROPHIL
_1_6263.jpeg,MONOCYTE
_1_6343.jpeg,NEUTROPHIL
_1_635.jpeg,NEUTROPHIL
_1_6355.jpeg,MONOCYTE
_1_6377.jpeg,MONOCYTE
_1_6379.jpeg,MONOCYTE
_1_6436.jpeg,MONOCYTE
_1_6472.jpeg,MONOCYTE
_1_6493.jpeg,MONOCYTE
_1_6526.jpeg,MONOCYTE
_1_6563.jpeg,EOSINOPHIL
_1_6571.jpeg,NEUTROPHIL
_1_6573.jpeg,LYMPHOCYTE
_1_6585.jpeg,LYMPHOCYTE
_1_6611.jpeg,LYMPHOCYTE
_1_664.jpeg,MONOCYTE
_1_6641.jpeg,MONOCYTE
_1_6659.jpeg,MONOCYTE
_1_6667.jpeg,EOSINOPHIL
_1_6702.jpeg,MONOCYTE
_1_6719.jpeg,MONOCYTE
_1_673.jpeg,MONOCYTE
_1_6772.jpeg,MONOCYTE
_1_6851.jpeg,EOSINOPHIL
_1_6857.jpeg,MONOCYTE
_1_6860.jpeg,MONOCYTE
_1_6937.jpeg,MONOCYTE
_1_696.jpeg,NEUTROPHIL
_1_6985.jpeg,LYMPHOCYTE
_1_7005.jpeg,LYMPHOCYTE
_1_7064.jpeg,LYMPHOCYTE
_1_7093.jpeg,MONOCYTE
_1_7116.jpeg,LYMPHOCYTE
_1_7122.jpeg,LYMPHOCYTE
_1_7136.jpeg,MONOCYTE
_1_7139.jpeg,LYMPHOCYTE
_1_7277.jpeg,NEUTROPHIL
_1_7304.jpeg,EOSINOPHIL
_1_7310.jpeg,MONOCYTE
_1_7380.jpeg,EOSINOPHIL
_1_739.jpeg,MONOCYTE
_1_7429.jpeg,NEUTROPHIL
_1_7435.jpeg,MONOCYTE
_1_7448.jpeg,LYMPHOCYTE
_1_7506.jpeg,LYMPHOCYTE
_1_7507.jpeg,MONOCYTE
_1_7517.jpeg,EOSINOPHIL
_1_7555.jpeg,EOSINOPHIL
_1_7615.jpeg,LYMPHOCYTE
_1_7654.jpeg,EOSINOPHIL
_1_7675.jpeg,MONOCYTE
_1_7704.jpeg,EOSINOPHIL
_1_7706.jpeg,LYMPHOCYTE
_1_7768.jpeg,MONOCYTE
_1_780.jpeg,NEUTROPHIL
_1_7851.jpeg,LYMPHOCYTE
_1_7860.jpeg,EOSINOPHIL
_1_787.jpeg,EOSINOPHIL
_1_7876.jpeg,LYMPHOCYTE
_1_7893.jpeg,EOSINOPHIL
_1_7952.jpeg,MONOCYTE
_1_7992.jpeg,NEUTROPHIL
_1_8006.jpeg,LYMPHOCYTE
_1_8011.jpeg,NEUTROPHIL
_1_8015.jpeg,LYMPHOCYTE
_1_8049.jpeg,MONOCYTE
_1_8054.jpeg,NEUTROPHIL
_1_8105.jpeg,EOSINOPHIL
_1_8138.jpeg,MONOCYTE
_1_8155.jpeg,MONOCYTE
_1_8178.jpeg,MONOCYTE
_1_818.jpeg,MONOCYTE
_1_8187.jpeg,MONOCYTE
_1_822.jpeg,EOSINOPHIL
_1_8248.jpeg,LYMPHOCYTE
_1_8267.jpeg,LYMPHOCYTE
_1_8291.jpeg,MONOCYTE
_1_8351.jpeg,LYMPHOCYTE
_1_8378.jpeg,LYMPHOCYTE
_1_84.jpeg,EOSINOPHIL
_1_8411.jpeg,MONOCYTE
_1_8483.jpeg,LYMPHOCYTE
_1_8563.jpeg,LYMPHOCYTE
_1_8614.jpeg,NEUTROPHIL
_1_8662.jpeg,NEUTROPHIL
_1_8663.jpeg,LYMPHOCYTE
_1_8698.jpeg,LYMPHOCYTE
_1_87.jpeg,MONOCYTE
_1_8722.jpeg,LYMPHOCYTE
_1_8737.jpeg,LYMPHOCYTE
_1_8741.jpeg,MONOCYTE
_1_8744.jpeg,LYMPHOCYTE
_1_8778.jpeg,MONOCYTE
_1_8799.jpeg,MONOCYTE
_1_8803.jpeg,EOSINOPHIL
_1_8845.jpeg,MONOCYTE
_1_8847.jpeg,NEUTROPHIL
_1_8936.jpeg,LYMPHOCYTE
_1_8948.jpeg,NEUTROPHIL
_1_8955.jpeg,MONOCYTE
_1_896.jpeg,LYMPHOCYTE
_1_8960.jpeg,EOSINOPHIL
_1_8968.jpeg,MONOCYTE
_1_8995.jpeg,LYMPHOCYTE
_1_9079.jpeg,EOSINOPHIL
_1_9107.jpeg,MONOCYTE
_1_9119.jpeg,LYMPHOCYTE
_1_9129.jpeg,MONOCYTE
_1_9185.jpeg,LYMPHOCYTE
_1_922.jpeg,EOSINOPHIL
_1_9313.jpeg,LYMPHOCYTE
_1_9347.jpeg,LYMPHOCYTE
_1_936.jpeg,NEUTROPHIL
_1_9393.jpeg,LYMPHOCYTE
_1_9406.jpeg,EOSINOPHIL
_1_945.jpeg,LYMPHOCYTE
_1_9458.jpeg,LYMPHOCYTE
_1_9489.jpeg,MONOCYTE
_1_9496.jpeg,EOSINOPHIL
_1_9507.jpeg,EOSINOPHIL
_1_9522.jpeg,EOSINOPHIL
_1_9584.jpeg,MONOCYTE
_1_9615.jpeg,MONOCYTE
_1_9694.jpeg,NEUTROPHIL
_1_9702.jpeg,MONOCYTE
_1_9703.jpeg,MONOCYTE
_1_9774.jpeg,MONOCYTE
_1_9852.jpeg,MONOCYTE
_1_9898.jpeg,MONOCYTE
_1_9905.jpeg,MONOCYTE
_1_9915.jpeg,EOSINOPHIL
_1_992.jpeg,EOSINOPHIL
_1_9923.jpeg,MONOCYTE
_1_9935.jpeg,MONOCYTE
_1_9972.jpeg,LYMPHOCYTE
_20_166.jpeg,NEUTROPHIL
_20_226.jpeg,NEUTROPHIL
_20_2603.jpeg,NEUTROPHIL
_20_3876.jpeg,NEUTROPHIL
_20_3937.jpeg,NEUTROPHIL
_20_5129.jpeg,NEUTROPHIL
_20_5388.jpeg,NEUTROPHIL
_20_5946.jpeg,NEUTROPHIL
_20_6584.jpeg,NEUTROPHIL
_20_7077.jpeg,NEUTROPHIL
_20_8140.jpeg,NEUTROPHIL
_20_8307.jpeg,EOSINOPHIL
_20_9505.jpeg,EOSINOPHIL
_21_1449.jpeg,NEUTROPHIL
_21_1628.jpeg,NEUTROPHIL
_21_2245.jpeg,NEUTROPHIL
_21_2777.jpeg,NEUTROPHIL
_21_2987.jpeg,EOSINOPHIL
_21_4704.jpeg,NEUTROPHIL
_21_475.jpeg,NEUTROPHIL
_21_5129.jpeg,NEUTROPHIL
_21_5693.jpeg,NEUTROPHIL
_21_5701.jpeg,NEUTROPHIL
_21_6043.jpeg,NEUTROPHIL
_21_7950.jpeg,NEUTROPHIL
_21_8903.jpeg,NEUTROPHIL
_22_1798.jpeg,NEUTROPHIL
_22_2589.jpeg,NEUTROPHIL
_22_2745.jpeg,NEUTROPHIL
_22_2799.jpeg,NEUTROPHIL
_22_2839.jpeg,NEUTROPHIL
_22_3089.jpeg,EOSINOPHIL
_22_3168.jpeg,NEUTROPHIL
_22_3356.jpeg,NEUTROPHIL
_22_3419.jpeg,EOSINOPHIL
_22_4284.jpeg,NEUTROPHIL
_22_5209.jpeg,NEUTROPHIL
_22_5595.jpeg,NEUTROPHIL
_22_7548.jpeg,NEUTROPHIL
_23_119.jpeg,NEUTROPHIL
_23_1986.jpeg,NEUTROPHIL
_23_2108.jpeg,NEUTROPHIL
_23_3458.jpeg,NEUTROPHIL
_23_4409.jpeg,NEUTROPHIL
_23_507.jpeg,NEUTROPHIL
_23_5172.jpeg,NEUTROPHIL
_23_5458.jpeg,NEUTROPHIL
_23_5708.jpeg,NEUTROPHIL
_23_6515.jpeg,EOSINOPHIL
_23_7923.jpeg,NEUTROPHIL
_23_8298.jpeg,NEUTROPHIL
_23_911.jpeg,NEUTROPHIL
_24_1869.jpeg,NEUTROPHIL
_24_2249.jpeg,NEUTROPHIL
_24_2419.jpeg,NEUTROPHIL
_24_2478.jpeg,NEUTROPHIL
_24_5003.jpeg,NEUTROPHIL
_24_5062.jpeg,NEUTROPHIL
_24_5286.jpeg,EOSINOPHIL
_24_5515.jpeg,NEUTROPHIL
_24_5788.jpeg,NEUTROPHIL
_24_6172.jpeg,NEUTROPHIL
_24_6550.jpeg,NEUTROPHIL
_24_6807.jpeg,NEUTROPHIL
_24_726.jpeg,NEUTROPHIL
_25_1125.jpeg,NEUTROPHIL
_25_152.jpeg,NEUTROPHIL
_25_1898.jpeg,NEUTROPHIL
_25_2438.jpeg,NEUTROPHIL
_25_3086.jpeg,NEUTROPHIL
_25_3761.jpeg,NEUTROPHIL
_25_6645.jpeg,EOSINOPHIL
_25_7263.jpeg,EOSINOPHIL
_25_8498.jpeg,NEUTROPHIL
_25_8780.jpeg,EOSINOPHIL
_25_8792.jpeg,NEUTROPHIL
_25_8805.jpeg,EOSINOPHIL
_25_9456.jpeg,NEUTROPHIL
_26_2519.jpeg,NEUTROPHIL
_26_2920.jpeg,NEUTROPHIL
_26_3218.jpeg,NEUTROPHIL
_26_3577.jpeg,EOSINOPHIL
_26_3899.jpeg,NEUTROPHIL
_26_4821.jpeg,EOSINOPHIL
_26_5246.jpeg,NEUTROPHIL
_26_5553.jpeg,NEUTROPHIL
_26_5731.jpeg,EOSINOPHIL
_26_5882.jpeg,NEUTROPHIL
_26_6082.jpeg,NEUTROPHIL
_26_9234.jpeg,EOSINOPHIL
_26_953.jpeg,EOSINOPHIL
_27_1021.jpeg,NEUTROPHIL
_27_3335.jpeg,NEUTROPHIL
_27_3721.jpeg,EOSINOPHIL
_27_4445.jpeg,NEUTROPHIL
_27_5089.jpeg,NEUTROPHIL
_27_5250.jpeg,NEUTROPHIL
_27_5282.jpeg,NEUTROPHIL
_27_6065.jpeg,EOSINOPHIL
_27_6082.jpeg,EOSINOPHIL
_27_6316.jpeg,NEUTROPHIL
_27_7136.jpeg,NEUTROPHIL
_27_9447.jpeg,NEUTROPHIL
_27_98.jpeg,NEUTROPHIL
_28_1746.jpeg,NEUTROPHIL
_28_2085.jpeg,NEUTROPHIL
_28_4019.jpeg,NEUTROPHIL
_28_6647.jpeg,NEUTROPHIL
_28_6937.jpeg,NEUTROPHIL
_28_6942.jpeg,NEUTROPHIL
_28_7983.jpeg,NEUTROPHIL
_28_8220.jpeg,NEUTROPHIL
_28_8307.jpeg,NEUTROPHIL
_28_8896.jpeg,NEUTROPHIL
_28_9357.jpeg,NEUTROPHIL
_28_9400.jpeg,NEUTROPHIL
_28_9699.jpeg,NEUTROPHIL
_29_1043.jpeg,NEUTROPHIL
_29_2574.jpeg,NEUTROPHIL
_29_3727.jpeg,NEUTROPHIL
_29_3749.jpeg,NEUTROPHIL
_29_4139.jpeg,EOSINOPHIL
_29_4704.jpeg,NEUTROPHIL
_29_4771.jpeg,NEUTROPHIL
_29_5366.jpeg,EOSINOPHIL
_29_7285.jpeg,NEUTROPHIL
_29_7672.jpeg,NEUTROPHIL
_29_8380.jpeg,NEUTROPHIL
_29_8588.jpeg,NEUTROPHIL
_29_8866.jpeg,NEUTROPHIL
_2_1041.jpeg,LYMPHOCYTE
_2_1073.jpeg,LYMPHOCYTE
_2_1088.jpeg,LYMPHOCYTE
_2_1102.jpeg,NEUTROPHIL
_2_1222.jpeg,NEUTROPHIL
_2_1270.jpeg,NEUTROPHIL
_2_1274.jpeg,EOSINOPHIL
_2_1281.jpeg,MONOCYTE
_2_1286.jpeg,EOSINOPHIL
_2_1358.jpeg,MONOCYTE
_2_1468.jpeg,MONOCYTE
_2_1501.jpeg,EOSINOPHIL
_2_1536.jpeg,MONOCYTE
_2_1545.jpeg,EOSINOPHIL
_2_1612.jpeg,EOSINOPHIL
_2_1632.jpeg,MONOCYTE
_2_1640.jpeg,LYMPHOCYTE
_2_1685.jpeg,NEUTROPHIL
_2_1728.jpeg,EOSINOPHIL
_2_179.jpeg,MONOCYTE
_2_1819.jpeg,MONOCYTE
_2_1856.jpeg,LYMPHOCYTE
_2_1889.jpeg,LYMPHOCYTE
_2_1934.jpeg,NEUTROPHIL
_2_1953.jpeg,EOSINOPHIL
_2_1965.jpeg,MONOCYTE
_2_1970.jpeg,EOSINOPHIL
_2_1971.jpeg,MONOCYTE
_2_1999.jpeg,MONOCYTE
_2_2024.jpeg,MONOCYTE
_2_2046.jpeg,MONOCYTE
_2_2047.jpeg,EOSINOPHIL
_2_2051.jpeg,MONOCYTE
_2_2065.jpeg,MONOCYTE
_2_21.jpeg,MONOCYTE
_2_2168.jpeg,NEUTROPHIL
_2_2327.jpeg,MONOCYTE
_2_233.jpeg,EOSINOPHIL
_2_2333.jpeg,MONOCYTE
_2_2341.jpeg,MONOCYTE
_2_2388.jpeg,MONOCYTE
_2_2398.jpeg,LYMPHOCYTE
_2_24.jpeg,NEUTROPHIL
_2_2401.jpeg,LYMPHOCYTE
_2_2446.jpeg,EOSINOPHIL
_2_2480.jpeg,MONOCYTE
_2_2506.jpeg,LYMPHOCYTE
_2_2557.jpeg,NEUTROPHIL
_2_2598.jpeg,MONOCYTE
_2_2604.jpeg,LYMPHOCYTE
_2_2641.jpeg,MONOCYTE
_2_2720.jpeg,LYMPHOCYTE
_2_2730.jpeg,LYMPHOCYTE
_2_274.jpeg,MONOCYTE
_2_276.jpeg,EOSINOPHIL
_2_2784.jpeg,EOSINOPHIL
_2_2893.jpeg,MONOCYTE
_2_2901.jpeg,EOSINOPHIL
_2_2908.jpeg,LYMPHOCYTE
_2_2916.jpeg,LYMPHOCYTE
_2_2924.jpeg,MONOCYTE
_2_2928.jpeg,MONOCYTE
_2_297.jpeg,MONOCYTE
_2_2986.jpeg,NEUTROPHIL
_2_3018.jpeg,LYMPHOCYTE
_2_3032.jpeg,EOSINOPHIL
_2_3048.jpeg,LYMPHOCYTE
_2_3100.jpeg,MONOCYTE
_2_3115.jpeg,MONOCYTE
_2_3204.jpeg,NEUTROPHIL
_2_3219.jpeg,LYMPHOCYTE
_2_324.jpeg,MONOCYTE
_2_3302.jpeg,EOSINOPHIL
_2_3350.jpeg,NEUTROPHIL
_2_3375.jpeg,NEUTROPHIL
_2_3408.jpeg,EOSINOPHIL
_2_3412.jpeg,LYMPHOCYTE
_2_3433.jpeg,EOSINOPHIL
_2_3438.jpeg,EOSINOPHIL
_2_3441.jpeg,EOSINOPHIL
_2_3463.jpeg,NEUTROPHIL
_2_3472.jpeg,MONOCYTE
_2_3498.jpeg,MONOCYTE
_2_3504.jpeg,NEUTROPHIL
_2_3515.jpeg,MONOCYTE
_2_3534.jpeg,LYMPHOCYTE
_2_3535.jpeg,EOSINOPHIL
_2_3547.jpeg,MONOCYTE
_2_357.jpeg,LYMPHOCYTE
_2_3612.jpeg,EOSINOPHIL
_2_3629.jpeg,MONOCYTE
_2_3639.jpeg,MONOCYTE
_2_3652.jpeg,MONOCYTE
_2_3697.jpeg,NEUTROPHIL
_2_3724.jpeg,EOSINOPHIL
_2_3849.jpeg,NEUTROPHIL
_2_3910.jpeg,MONOCYTE
_2_3922.jpeg,LYMPHOCYTE
_2_3932.jpeg,MONOCYTE
_2_396.jpeg,LYMPHOCYTE
_2_3974.jpeg,MONOCYTE
_2_3977.jpeg,MONOCYTE
_2_4034.jpeg,MONOCYTE
_2_4102.jpeg,LYMPHOCYTE
_2_415.jpeg,LYMPHOCYTE
_2_4150.jpeg,LYMPHOCYTE
_2_4168.jpeg,LYMPHOCYTE
_2_4197.jpeg,MONOCYTE
_2_4200.jpeg,LYMPHOCYTE
_2_4239.jpeg,LYMPHOCYTE
_2_4261.jpeg,MONOCYTE
_2_4263.jpeg,EOSINOPHIL
_2_4307.jpeg,MONOCYTE
_2_4363.jpeg,MONOCYTE
_2_44.jpeg,NEUTROPHIL
_2_4486.jpeg,LYMPHOCYTE
_2_4490.jpeg,NEUTROPHIL
_2_4581.jpeg,LYMPHOCYTE
_2_4602.jpeg,MONOCYTE
_2_4606.jpeg,MONOCYTE
_2_4609.jpeg,LYMPHOCYTE
_2_4617.jpeg,LYMPHOCYTE
_2_4636.jpeg,LYMPHOCYTE
_2_465.jpeg,MONOCYTE
_2_4675.jpeg,MONOCYTE
_2_469.jpeg,NEUTROPHIL
_2_4702.jpeg,MONOCYTE
_2_4714.jpeg,LYMPHOCYTE
_2_4725.jpeg,MONOCYTE
_2_4754.jpeg,NEUTROPHIL
_2_4758.jpeg,LYMPHOCYTE
_2_4796.jpeg,LYMPHOCYTE
_2_4808.jpeg,MONOCYTE
_2_4838.jpeg,EOSINOPHIL
_2_4844.jpeg,MONOCYTE
_2_4874.jpeg,NEUTROPHIL
_2_4882.jpeg,NEUTROPHIL
_2_4955.jpeg,LYMPHOCYTE
_2_4962.jpeg,MONOCYTE
_2_4966.jpeg,MONOCYTE
_2_498.jpeg,MONOCYTE
_2_4990.jpeg,NEUTROPHIL
_2_4994.jpeg,MONOCYTE
_2_5016.jpeg,EOSINOPHIL
_2_5023.jpeg,LYMPHOCYTE
_2_5042.jpeg,MONOCYTE
_2_5100.jpeg,LYMPHOCYTE
_2_5167.jpeg,MONOCYTE
_2_5173.jpeg,EOSINOPHIL
_2_5219.jpeg,MONOCYTE
_2_5235.jpeg,MONOCYTE
_2_5305.jpeg,LYMPHOCYTE
_2_5309.jpeg,LYMPHOCYTE
_2_5316.jpeg,MONOCYTE
_2_5368.jpeg,LYMPHOCYTE
_2_5415.jpeg,LYMPHOCYTE
_2_5427.jpeg,EOSINOPHIL
_2_5551.jpeg,LYMPHOCYTE
_2_5579.jpeg,NEUTROPHIL
_2_5590.jpeg,EOSINOPHIL
_2_5594.jpeg,LYMPHOCYTE
_2_56.jpeg,LYMPHOCYTE
_2_5611.jpeg,LYMPHOCYTE
_2_5631.jpeg,EOSINOPHIL
_2_5637.jpeg,NEUTROPHIL
_2_5683.jpeg,MONOCYTE
_2_5708.jpeg,EOSINOPHIL
_2_5713.jpeg,MONOCYTE
_2_5734.jpeg,MONOCYTE
_2_579.jpeg,EOSINOPHIL
_2_5809.jpeg,MONOCYTE
_2_5848.jpeg,EOSINOPHIL
_2_5865.jpeg,LYMPHOCYTE
_2_587.jpeg,MONOCYTE
_2_5985.jpeg,MONOCYTE
_2_6036.jpeg,NEUTROPHIL
_2_6055.jpeg,LYMPHOCYTE
_2_607.jpeg,MONOCYTE
_2_6096.jpeg,LYMPHOCYTE
_2_6173.jpeg,LYMPHOCYTE
_2_6325.jpeg,MONOCYTE
_2_6378.jpeg,MONOCYTE
_2_6413.jpeg,MONOCYTE
_2_6427.jpeg,MONOCYTE
_2_6467.jpeg,MONOCYTE
_2_6521.jpeg,MONOCYTE
_2_6536.jpeg,MONOCYTE
_2_6552.jpeg,LYMPHOCYTE
_2_6619.jpeg,EOSINOPHIL
_2_6667.jpeg,MONOCYTE
_2_6702.jpeg,LYMPHOCYTE
_2_6767.jpeg,MONOCYTE
_2_6807.jpeg,NEUTROPHIL
_2_6823.jpeg,LYMPHOCYTE
_2_6877.jpeg,MONOCYTE
_2_6897.jpeg,LYMPHOCYTE
_2_6910.jpeg,NEUTROPHIL
_2_693.jpeg,LYMPHOCYTE
_2_6958.jpeg,LYMPHOCYTE
_2_6996.jpeg,LYMPHOCYTE
_2_704.jpeg,LYMPHOCYTE
_2_7079.jpeg,LYMPHOCYTE
_2_7083.jpeg,MONOCYTE
_2_7087.jpeg,LYMPHOCYTE
_2_7088.jpeg,MONOCYTE
_2_7123.jpeg,MONOCYTE
_2_7234.jpeg,MONOCYTE
_2_7265.jpeg,LYMPHOCYTE
_2_7269.jpeg,LYMPHOCYTE
_2_7277.jpeg,LYMPHOCYTE
_2_73.jpeg,EOSINOPHIL
_2_7300.jpeg,NEUTROPHIL
_2_7310.jpeg,EOSINOPHIL
_2_7356.jpeg,EOSINOPHIL
_2_7389.jpeg,NEUTROPHIL
_2_7468.jpeg,LYMPHOCYTE
_2_7490.jpeg,MONOCYTE
_2_7494.jpeg,MONOCYTE
_2_7559.jpeg,MONOCYTE
_2_7569.jpeg,NEUTROPHIL
_2_7639.jpeg,LYMPHOCYTE
_2_7675.jpeg,LYMPHOCYTE
_2_7696.jpeg,LYMPHOCYTE
_2_7701.jpeg,MONOCYTE
_2_7789.jpeg,MONOCYTE
_2_779.jpeg,MONOCYTE
_2_7792.jpeg,EOSINOPHIL
_2_7811.jpeg,MONOCYTE
_2_7847.jpeg,EOSINOPHIL
_2_7853.jpeg,LYMPHOCYTE
_2_7880.jpeg,MONOCYTE
_2_7914.jpeg,EOSINOPHIL
_2_7915.jpeg,MONOCYTE
_2_7942.jpeg,MONOCYTE
_2_7955.jpeg,NEUTROPHIL
_2_7994.jpeg,NEUTROPHIL
_2_7998.jpeg,MONOCYTE
_2_8007.jpeg,LYMPHOCYTE
_2_8050.jpeg,MONOCYTE
_2_8067.jpeg,MONOCYTE
_2_8096.jpeg,LYMPHOCYTE
_2_8109.jpeg,LYMPHOCYTE
_2_8166.jpeg,LYMPHOCYTE
_2_8177.jpeg,EOSINOPHIL
_2_8178.jpeg,EOSINOPHIL
_2_8225.jpeg,LYMPHOCYTE
_2_8238.jpeg,NEUTROPHIL
_2_8250.jpeg,MONOCYTE
_2_8274.jpeg,LYMPHOCYTE
_2_8294.jpeg,MONOCYTE
_2_8307.jpeg,MONOCYTE
_2_8310.jpeg,MONOCYTE
_2_8356.jpeg,LYMPHOCYTE
_2_8376.jpeg,MONOCYTE
_2_8426.jpeg,LYMPHOCYTE
_2_8440.jpeg,LYMPHOCYTE
_2_8454.jpeg,MONOCYTE
_2_8461.jpeg,LYMPHOCYTE
_2_8475.jpeg,LYMPHOCYTE
_2_849.jpeg,NEUTROPHIL
_2_8512.jpeg,LYMPHOCYTE
_2_8528.jpeg,LYMPHOCYTE
_2_8580.jpeg,LYMPHOCYTE
_2_8613.jpeg,MONOCYTE
_2_8662.jpeg,LYMPHOCYTE
_2_8751.jpeg,LYMPHOCYTE
_2_8812.jpeg,MONOCYTE
_2_8829.jpeg,MONOCYTE
_2_8868.jpeg,MONOCYTE
_2_8878.jpeg,MONOCYTE
_2_8895.jpeg,MONOCYTE
_2_8901.jpeg,LYMPHOCYTE
_2_8920.jpeg,EOSINOPHIL
_2_8937.jpeg,MONOCYTE
_2_8960.jpeg,LYMPHOCYTE
_2_8976.jpeg,MONOCYTE
_2_9054.jpeg,EOSINOPHIL
_2_9069.jpeg,MONOCYTE
_2_9116.jpeg,LYMPHOCYTE
_2_9121.jpeg,LYMPHOCYTE
_2_9124.jpeg,LYMPHOCYTE
_2_9135.jpeg,MONOCYTE
_2_9161.jpeg,EOSINOPHIL
_2_918.jpeg,LYMPHOCYTE
_2_9203.jpeg,LYMPHOCYTE
_2_9216.jpeg,EOSINOPHIL
_2_9227.jpeg,MONOCYTE
_2_9230.jpeg,EOSINOPHIL
_2_9235.jpeg,LYMPHOCYTE
_2_9262.jpeg,MONOCYTE
_2_9276.jpeg,LYMPHOCYTE
_2_929.jpeg,MONOCYTE
_2_9295.jpeg,MONOCYTE
_2_9323.jpeg,LYMPHOCYTE
_2_9325.jpeg,EOSINOPHIL
_2_939.jpeg,MONOCYTE
_2_9395.jpeg,LYMPHOCYTE
_2_9399.jpeg,MONOCYTE
_2_9432.jpeg,LYMPHOCYTE
_2_9540.jpeg,EOSINOPHIL
_2_9541.jpeg,NEUTROPHIL
_2_9610.jpeg,EOSINOPHIL
_2_962.jpeg,MONOCYTE
_2_9635.jpeg,LYMPHOCYTE
_2_966.jpeg,MONOCYTE
_2_9706.jpeg,EOSINOPHIL
_2_9782.jpeg,LYMPHOCYTE
_2_9829.jpeg,EOSINOPHIL
_2_9858.jpeg,LYMPHOCYTE
_2_991.jpeg,LYMPHOCYTE
_2_9914.jpeg,MONOCYTE
_2_9919.jpeg,NEUTROPHIL
_2_9932.jpeg,LYMPHOCYTE
_2_9953.jpeg,MONOCYTE
_2_9965.jpeg,LYMPHOCYTE
_2_9978.jpeg,LYMPHOCYTE
_2_9981.jpeg,EOSINOPHIL
_2_9991.jpeg,MONOCYTE
_2_9998.jpeg,MONOCYTE
_30_1146.jpeg,NEUTROPHIL
_30_1519.jpeg,NEUTROPHIL
_30_3662.jpeg,NEUTROPHIL
_30_3942.jpeg,NEUTROPHIL
_30_4474.jpeg,NEUTROPHIL
_30_4869.jpeg,NEUTROPHIL
_30_5177.jpeg,NEUTROPHIL
_30_5726.jpeg,NEUTROPHIL
_30_7134.jpeg,EOSINOPHIL
_30_8204.jpeg,NEUTROPHIL
_30_9221.jpeg,NEUTROPHIL
_30_9323.jpeg,NEUTROPHIL
_30_9751.jpeg,NEUTROPHIL
_31_2312.jpeg,EOSINOPHIL
_31_2360.jpeg,NEUTROPHIL
_31_3636.jpeg,NEUTROPHIL
_31_3657.jpeg,NEUTROPHIL
_31_5298.jpeg,NEUTROPHIL
_31_6369.jpeg,NEUTROPHIL
_31_73.jpeg,NEUTROPHIL
_31_7652.jpeg,NEUTROPHIL
_31_773.jpeg,NEUTROPHIL
_31_7870.jpeg,NEUTROPHIL
_31_9546.jpeg,NEUTROPHIL
_31_98.jpeg,NEUTROPHIL
_31_9818.jpeg,NEUTROPHIL
_32_1324.jpeg,NEUTROPHIL
_32_1524.jpeg,NEUTROPHIL
_32_2422.jpeg,NEUTROPHIL
_32_2919.jpeg,NEUTROPHIL
_32_3375.jpeg,NEUTROPHIL
_32_4374.jpeg,NEUTROPHIL
_32_5745.jpeg,EOSINOPHIL
_32_6577.jpeg,NEUTROPHIL
_32_7931.jpeg,EOSINOPHIL
_32_8002.jpeg,NEUTROPHIL
_32_8804.jpeg,NEUTROPHIL
_32_9505.jpeg,NEUTROPHIL
_32_956.jpeg,NEUTROPHIL
_33_2296.jpeg,NEUTROPHIL
_33_274.jpeg,NEUTROPHIL
_33_3754.jpeg,NEUTROPHIL
_33_4862.jpeg,NEUTROPHIL
_33_4972.jpeg,NEUTROPHIL
_33_5111.jpeg,NEUTROPHIL
_33_534.jpeg,NEUTROPHIL
_33_5784.jpeg,NEUTROPHIL
_33_6906.jpeg,NEUTROPHIL
_33_8695.jpeg,NEUTROPHIL
_33_8978.jpeg,NEUTROPHIL
_33_9198.jpeg,NEUTROPHIL
_33_9910.jpeg,NEUTROPHIL
_34_1497.jpeg,NEUTROPHIL
_34_1526.jpeg,NEUTROPHIL
_34_223.jpeg,NEUTROPHIL
_34_3019.jpeg,NEUTROPHIL
_34_3326.jpeg,NEUTROPHIL
_34_3363.jpeg,NEUTROPHIL
_34_4792.jpeg,EOSINOPHIL
_34_5161.jpeg,NEUTROPHIL
_34_5289.jpeg,NEUTROPHIL
_34_576.jpeg,NEUTROPHIL
_34_5851.jpeg,NEUTROPHIL
_34_5893.jpeg,NEUTROPHIL
_34_6214.jpeg,NEUTROPHIL
_35_2142.jpeg,NEUTROPHIL
_35_2187.jpeg,NEUTROPHIL
_35_224.jpeg,NEUTROPHIL
_35_2688.jpeg,NEUTROPHIL
_35_2923.jpeg,NEUTROPHIL
_35_35.jpeg,NEUTROPHIL
_35_4283.jpeg,NEUTROPHIL
_35_6137.jpeg,NEUTROPHIL
_35_7625.jpeg,NEUTROPHIL
_35_7782.jpeg,NEUTROPHIL
_35_8751.jpeg,NEUTROPHIL
_35_9410.jpeg,NEUTROPHIL
_35_9734.jpeg,NEUTROPHIL
_36_1236.jpeg,NEUTROPHIL
_36_2783.jpeg,NEUTROPHIL
_36_4991.jpeg,NEUTROPHIL
_36_5176.jpeg,NEUTROPHIL
_36_5277.jpeg,EOSINOPHIL
_36_555.jpeg,EOSINOPHIL
_36_6046.jpeg,NEUTROPHIL
_36_7240.jpeg,NEUTROPHIL
_36_8246.jpeg,EOSINOPHIL
_36_8497.jpeg,NEUTROPHIL
_36_9768.jpeg,EOSINOPHIL
_36_9879.jpeg,NEUTROPHIL
_36_9934.jpeg,NEUTROPHIL
_37_1308.jpeg,NEUTROPHIL
_37_1394.jpeg,NEUTROPHIL
_37_1581.jpeg,EOSINOPHIL
_37_2862.jpeg,NEUTROPHIL
_37_5074.jpeg,NEUTROPHIL
_37_5605.jpeg,NEUTROPHIL
_37_6117.jpeg,EOSINOPHIL
_37_6904.jpeg,EOSINOPHIL
_37_7318.jpeg,EOSINOPHIL
_37_7894.jpeg,NEUTROPHIL
_37_9362.jpeg,NEUTROPHIL
_37_9835.jpeg,NEUTROPHIL
_37_9944.jpeg,NEUTROPHIL
_38_2591.jpeg,EOSINOPHIL
_38_2616.jpeg,EOSINOPHIL
_38_352.jpeg,NEUTROPHIL
_38_3881.jpeg,NEUTROPHIL
_38_3922.jpeg,NEUTROPHIL
_38_4581.jpeg,NEUTROPHIL
_38_4920.jpeg,NEUTROPHIL
_38_6125.jpeg,NEUTROPHIL
_38_6898.jpeg,EOSINOPHIL
_38_7538.jpeg,NEUTROPHIL
_38_7629.jpeg,NEUTROPHIL
_38_908.jpeg,NEUTROPHIL
_38_9771.jpeg,NEUTROPHIL
_39_1221.jpeg,NEUTROPHIL
_39_1315.jpeg,NEUTROPHIL
_39_2383.jpeg,NEUTROPHIL
_39_2769.jpeg,NEUTROPHIL
_39_3200.jpeg,NEUTROPHIL
_39_3337.jpeg,NEUTROPHIL
_39_3541.jpeg,NEUTROPHIL
_39_3746.jpeg,NEUTROPHIL
_39_4255.jpeg,NEUTROPHIL
_39_6506.jpeg,NEUTROPHIL
_39_7198.jpeg,NEUTROPHIL
_39_9461.jpeg,NEUTROPHIL
_39_9607.jpeg,NEUTROPHIL
_3_101.jpeg,NEUTROPHIL
_3_1037.jpeg,NEUTROPHIL
_3_1068.jpeg,MONOCYTE
_3_1076.jpeg,LYMPHOCYTE
_3_1113.jpeg,LYMPHOCYTE
_3_1119.jpeg,LYMPHOCYTE
_3_1173.jpeg,LYMPHOCYTE
_3_1182.jpeg,LYMPHOCYTE
_3_1201.jpeg,LYMPHOCYTE
_3_1202.jpeg,EOSINOPHIL
_3_1206.jpeg,MONOCYTE
_3_1250.jpeg,EOSINOPHIL
_3_1271.jpeg,NEUTROPHIL
_3_1312.jpeg,LYMPHOCYTE
_3_1322.jpeg,LYMPHOCYTE
_3_1343.jpeg,EOSINOPHIL
_3_1361.jpeg,MONOCYTE
_3_1390.jpeg,EOSINOPHIL
_3_1428.jpeg,MONOCYTE
_3_1453.jpeg,LYMPHOCYTE
_3_1492.jpeg,MONOCYTE
_3_1523.jpeg,MONOCYTE
_3_1538.jpeg,MONOCYTE
_3_1570.jpeg,MONOCYTE
_3_1612.jpeg,MONOCYTE
_3_1638.jpeg,MONOCYTE
_3_1645.jpeg,MONOCYTE
_3_1672.jpeg,MONOCYTE
_3_1735.jpeg,MONOCYTE
_3_1752.jpeg,EOSINOPHIL
_3_1764.jpeg,LYMPHOCYTE
_3_1778.jpeg,NEUTROPHIL
_3_1787.jpeg,LYMPHOCYTE
_3_1807.jpeg,MONOCYTE
_3_1855.jpeg,MONOCYTE
_3_1871.jpeg,MONOCYTE
_3_1954.jpeg,EOSINOPHIL
_3_1955.jpeg,EOSINOPHIL
_3_1965.jpeg,MONOCYTE
_3_2033.jpeg,LYMPHOCYTE
_3_2049.jpeg,LYMPHOCYTE
_3_2071.jpeg,NEUTROPHIL
_3_2156.jpeg,MONOCYTE
_3_2174.jpeg,MONOCYTE
_3_2175.jpeg,EOSINOPHIL
_3_2198.jpeg,MONOCYTE
_3_2201.jpeg,NEUTROPHIL
_3_2284.jpeg,LYMPHOCYTE
_3_2338.jpeg,LYMPHOCYTE
_3_2344.jpeg,LYMPHOCYTE
_3_2371.jpeg,MONOCYTE
_3_2393.jpeg,LYMPHOCYTE
_3_2444.jpeg,NEUTROPHIL
_3_2531.jpeg,EOSINOPHIL
_3_2541.jpeg,MONOCYTE
_3_2602.jpeg,MONOCYTE
_3_2654.jpeg,EOSINOPHIL
_3_2678.jpeg,NEUTROPHIL
_3_2696.jpeg,MONOCYTE
_3_2748.jpeg,MONOCYTE
_3_276.jpeg,NEUTROPHIL
_3_2823.jpeg,MONOCYTE
_3_2866.jpeg,MONOCYTE
_3_2872.jpeg,MONOCYTE
_3_2887.jpeg,EOSINOPHIL
_3_2897.jpeg,MONOCYTE
_3_2915.jpeg,LYMPHOCYTE
_3_2937.jpeg,LYMPHOCYTE
_3_2945.jpeg,EOSINOPHIL
_3_2953.jpeg,LYMPHOCYTE
_3_2972.jpeg,LYMPHOCYTE
_3_3012.jpeg,LYMPHOCYTE
_3_3064.jpeg,EOSINOPHIL
_3_3122.jpeg,MONOCYTE
_3_3189.jpeg,LYMPHOCYTE
_3_3193.jpeg,MONOCYTE
_3_323.jpeg,LYMPHOCYTE
_3_3235.jpeg,NEUTROPHIL
_3_3243.jpeg,LYMPHOCYTE
_3_3311.jpeg,LYMPHOCYTE
_3_3335.jpeg,MONOCYTE
_3_3352.jpeg,MONOCYTE
_3_3376.jpeg,MONOCYTE
_3_338.jpeg,LYMPHOCYTE
_3_3395.jpeg,LYMPHOCYTE
_3_3414.jpeg,MONOCYTE
_3_3458.jpeg,LYMPHOCYTE
_3_3465.jpeg,MONOCYTE
_3_3484.jpeg,MONOCYTE
_3_3505.jpeg,EOSINOPHIL
_3_3533.jpeg,MONOCYTE
_3_3601.jpeg,NEUTROPHIL
_3_3659.jpeg,MONOCYTE
_3_3680.jpeg,MONOCYTE
_3_3697.jpeg,MONOCYTE
_3_3710.jpeg,LYMPHOCYTE
_3_3740.jpeg,LYMPHOCYTE
_3_3742.jpeg,LYMPHOCYTE
_3_376.jpeg,NEUTROPHIL
_3_3796.jpeg,MONOCYTE
_3_3839.jpeg,LYMPHOCYTE
_3_384.jpeg,NEUTROPHIL
_3_3858.jpeg,EOSINOPHIL
_3_3888.jpeg,LYMPHOCYTE
_3_3933.jpeg,MONOCYTE
_3_40.jpeg,MONOCYTE
_3_4035.jpeg,LYMPHOCYTE
_3_407.jpeg,EOSINOPHIL
_3_4154.jpeg,LYMPHOCYTE
_3_4192.jpeg,LYMPHOCYTE
_3_4257.jpeg,NEUTROPHIL
_3_4263.jpeg,EOSINOPHIL
_3_4285.jpeg,EOSINOPHIL
_3_434.jpeg,LYMPHOCYTE
_3_4387.jpeg,MONOCYTE
_3_4418.jpeg,LYMPHOCYTE
_3_4469.jpeg,LYMPHOCYTE
_3_4470.jpeg,MONOCYTE
_3_4515.jpeg,MONOCYTE
_3_4519.jpeg,LYMPHOCYTE
_3_452.jpeg,LYMPHOCYTE
_3_4548.jpeg,MONOCYTE
_3_4551.jpeg,NEUTROPHIL
_3_4562.jpeg,MONOCYTE
_3_4574.jpeg,LYMPHOCYTE
_3_4576.jpeg,MONOCYTE
_3_4636.jpeg,LYMPHOCYTE
_3_4646.jpeg,MONOCYTE
_3_4658.jpeg,NEUTROPHIL
_3_4667.jpeg,MONOCYTE
_3_4720.jpeg,NEUTROPHIL
_3_473.jpeg,NEUTROPHIL
_3_4744.jpeg,LYMPHOCYTE
_3_4746.jpeg,MONOCYTE
_3_4756.jpeg,EOSINOPHIL
_3_482.jpeg,EOSINOPHIL
_3_485.jpeg,NEUTROPHIL
_3_4905.jpeg,LYMPHOCYTE
_3_4960.jpeg,MONOCYTE
_3_4964.jpeg,EOSINOPHIL
_3_5077.jpeg,NEUTROPHIL
_3_5125.jpeg,MONOCYTE
_3_5177.jpeg,MONOCYTE
_3_5179.jpeg,MONOCYTE
_3_5192.jpeg,MONOCYTE
_3_5290.jpeg,MONOCYTE
_3_5379.jpeg,MONOCYTE
_3_5426.jpeg,LYMPHOCYTE
_3_5433.jpeg,MONOCYTE
_3_5434.jpeg,LYMPHOCYTE
_3_545.jpeg,MONOCYTE
_3_5466.jpeg,LYMPHOCYTE
_3_5495.jpeg,EOSINOPHIL
_3_5496.jpeg,LYMPHOCYTE
_3_55.jpeg,MONOCYTE
_3_554.jpeg,LYMPHOCYTE
_3_5629.jpeg,LYMPHOCYTE
_3_5665.jpeg,MONOCYTE
_3_5693.jpeg,NEUTROPHIL
_3_5720.jpeg,MONOCYTE
_3_5830.jpeg,MONOCYTE
_3_5863.jpeg,EOSINOPHIL
_3_5945.jpeg,MONOCYTE
_3_5958.jpeg,MONOCYTE
_3_5962.jpeg,NEUTROPHIL
_3_6030.jpeg,EOSINOPHIL
_3_6216.jpeg,MONOCYTE
_3_6227.jpeg,LYMPHOCYTE
_3_6261.jpeg,LYMPHOCYTE
_3_6274.jpeg,EOSINOPHIL
_3_6296.jpeg,EOSINOPHIL
_3_6310.jpeg,EOSINOPHIL
_3_6313.jpeg,NEUTROPHIL
_3_633.jpeg,EOSINOPHIL
_3_6332.jpeg,MONOCYTE
_3_6400.jpeg,EOSINOPHIL
_3_6422.jpeg,EOSINOPHIL
_3_6486.jpeg,LYMPHOCYTE
_3_6560.jpeg,LYMPHOCYTE
_3_6582.jpeg,NEUTROPHIL
_3_6583.jpeg,LYMPHOCYTE
_3_6618.jpeg,EOSINOPHIL
_3_6619.jpeg,MONOCYTE
_3_6632.jpeg,MONOCYTE
_3_6692.jpeg,LYMPHOCYTE
_3_6696.jpeg,MONOCYTE
_3_6697.jpeg,LYMPHOCYTE
_3_6724.jpeg,MONOCYTE
_3_6738.jpeg,MONOCYTE
_3_6741.jpeg,EOSINOPHIL
_3_684.jpeg,MONOCYTE
_3_6850.jpeg,EOSINOPHIL
_3_6862.jpeg,MONOCYTE
_3_6919.jpeg,EOSINOPHIL
_3_6941.jpeg,MONOCYTE
_3_6958.jpeg,LYMPHOCYTE
_3_6966.jpeg,MONOCYTE
_3_6972.jpeg,LYMPHOCYTE
_3_6999.jpeg,MONOCYTE
_3_70.jpeg,LYMPHOCYTE
_3_7007.jpeg,LYMPHOCYTE
_3_7016.jpeg,LYMPHOCYTE
_3_7034.jpeg,LYMPHOCYTE
_3_7041.jpeg,EOSINOPHIL
_3_7047.jpeg,LYMPHOCYTE
_3_7058.jpeg,MONOCYTE
_3_7064.jpeg,EOSINOPHIL
_3_7071.jpeg,MONOCYTE
_3_7087.jpeg,EOSINOPHIL
_3_7101.jpeg,EOSINOPHIL
_3_7108.jpeg,MONOCYTE
_3_7192.jpeg,LYMPHOCYTE
_3_7248.jpeg,EOSINOPHIL
_3_7255.jpeg,LYMPHOCYTE
_3_7274.jpeg,MONOCYTE
_3_7278.jpeg,MONOCYTE
_3_728.jpeg,EOSINOPHIL
_3_7306.jpeg,MONOCYTE
_3_7346.jpeg,MONOCYTE
_3_7352.jpeg,NEUTROPHIL
_3_7374.jpeg,EOSINOPHIL
_3_7425.jpeg,MONOCYTE
_3_7570.jpeg,LYMPHOCYTE
_3_760.jpeg,LYMPHOCYTE
_3_7609.jpeg,NEUTROPHIL
_3_7622.jpeg,MONOCYTE
_3_7678.jpeg,MONOCYTE
_3_7746.jpeg,MONOCYTE
_3_7788.jpeg,NEUTROPHIL
_3_7797.jpeg,MONOCYTE
_3_7807.jpeg,LYMPHOCYTE
_3_7866.jpeg,MONOCYTE
_3_7881.jpeg,LYMPHOCYTE
_3_7905.jpeg,LYMPHOCYTE
_3_7913.jpeg,MONOCYTE
_3_7914.jpeg,EOSINOPHIL
_3_7996.jpeg,MONOCYTE
_3_8.jpeg,MONOCYTE
_3_8013.jpeg,MONOCYTE
_3_8023.jpeg,MONOCYTE
_3_8104.jpeg,LYMPHOCYTE
_3_8158.jpeg,MONOCYTE
_3_8166.jpeg,MONOCYTE
_3_8176.jpeg,MONOCYTE
_3_82.jpeg,MONOCYTE
_3_8202.jpeg,EOSINOPHIL
_3_8323.jpeg,MONOCYTE
_3_840.jpeg,EOSINOPHIL
_3_8410.jpeg,MONOCYTE
_3_8414.jpeg,LYMPHOCYTE
_3_8419.jpeg,LYMPHOCYTE
_3_8442.jpeg,NEUTROPHIL
_3_8493.jpeg,LYMPHOCYTE
_3_8513.jpeg,NEUTROPHIL
_3_8520.jpeg,LYMPHOCYTE
_3_8577.jpeg,LYMPHOCYTE
_3_8583.jpeg,MONOCYTE
_3_8590.jpeg,MONOCYTE
_3_8600.jpeg,EOSINOPHIL
_3_8602.jpeg,MONOCYTE
_3_8613.jpeg,NEUTROPHIL
_3_8644.jpeg,MONOCYTE
_3_8660.jpeg,NEUTROPHIL
_3_8715.jpeg,LYMPHOCYTE
_3_8716.jpeg,LYMPHOCYTE
_3_8718.jpeg,MONOCYTE
_3_8734.jpeg,LYMPHOCYTE
_3_8795.jpeg,MONOCYTE
_3_8865.jpeg,LYMPHOCYTE
_3_8870.jpeg,MONOCYTE
_3_8901.jpeg,LYMPHOCYTE
_3_8908.jpeg,MONOCYTE
_3_893.jpeg,NEUTROPHIL
_3_8932.jpeg,MONOCYTE
_3_8942.jpeg,MONOCYTE
_3_8958.jpeg,MONOCYTE
_3_8987.jpeg,EOSINOPHIL
_3_8990.jpeg,MONOCYTE
_3_9012.jpeg,MONOCYTE
_3_9049.jpeg,LYMPHOCYTE
_3_9101.jpeg,LYMPHOCYTE
_3_9102.jpeg,MONOCYTE
_3_9140.jpeg,EOSINOPHIL
_3_9151.jpeg,NEUTROPHIL
_3_9155.jpeg,LYMPHOCYTE
_3_9170.jpeg,LYMPHOCYTE
_3_9239.jpeg,LYMPHOCYTE
_3_9251.jpeg,NEUTROPHIL
_3_9262.jpeg,MONOCYTE
_3_9276.jpeg,EOSINOPHIL
_3_9295.jpeg,LYMPHOCYTE
_3_9310.jpeg,MONOCYTE
_3_9330.jpeg,MONOCYTE
_3_9331.jpeg,MONOCYTE
_3_9351.jpeg,MONOCYTE
_3_937.jpeg,EOSINOPHIL
_3_9396.jpeg,LYMPHOCYTE
_3_9423.jpeg,EOSINOPHIL
_3_9532.jpeg,LYMPHOCYTE
_3_9541.jpeg,LYMPHOCYTE
_3_958.jpeg,LYMPHOCYTE
_3_9705.jpeg,LYMPHOCYTE
_3_9785.jpeg,LYMPHOCYTE
_3_980.jpeg,LYMPHOCYTE
_3_9816.jpeg,EOSINOPHIL
_3_9841.jpeg,LYMPHOCYTE
_3_9862.jpeg,LYMPHOCYTE
_3_9885.jpeg,EOSINOPHIL
_3_9895.jpeg,LYMPHOCYTE
_3_9908.jpeg,LYMPHOCYTE
_3_9922.jpeg,LYMPHOCYTE
_3_994.jpeg,MONOCYTE
_3_9971.jpeg,LYMPHOCYTE
_40_1116.jpeg,NEUTROPHIL
_40_1921.jpeg,NEUTROPHIL
_40_2403.jpeg,NEUTROPHIL
_40_2511.jpeg,NEUTROPHIL
_40_2816.jpeg,NEUTROPHIL
_40_5198.jpeg,NEUTROPHIL
_40_5968.jpeg,NEUTROPHIL
_40_7007.jpeg,NEUTROPHIL
_40_7689.jpeg,EOSINOPHIL
_40_9127.jpeg,NEUTROPHIL
_40_9160.jpeg,NEUTROPHIL
_40_9322.jpeg,EOSINOPHIL
_40_9497.jpeg,NEUTROPHIL
_41_1183.jpeg,NEUTROPHIL
_41_1458.jpeg,NEUTROPHIL
_41_1530.jpeg,NEUTROPHIL
_41_2925.jpeg,NEUTROPHIL
_41_3037.jpeg,NEUTROPHIL
_41_5379.jpeg,NEUTROPHIL
_41_5447.jpeg,NEUTROPHIL
_41_6455.jpeg,NEUTROPHIL
_41_692.jpeg,NEUTROPHIL
_41_8131.jpeg,NEUTROPHIL
_41_8232.jpeg,NEUTROPHIL
_41_8500.jpeg,NEUTROPHIL
_41_9994.jpeg,NEUTROPHIL
_42_1384.jpeg,NEUTROPHIL
_42_1589.jpeg,NEUTROPHIL
_42_1758.jpeg,EOSINOPHIL
_42_287.jpeg,EOSINOPHIL
_42_3135.jpeg,NEUTROPHIL
_42_3210.jpeg,NEUTROPHIL
_42_3271.jpeg,NEUTROPHIL
_42_4657.jpeg,NEUTROPHIL
_42_7787.jpeg,NEUTROPHIL
_42_779.jpeg,NEUTROPHIL
_42_8776.jpeg,NEUTROPHIL
_42_8959.jpeg,NEUTROPHIL
_42_9683.jpeg,NEUTROPHIL
_43_1151.jpeg,NEUTROPHIL
_43_2872.jpeg,NEUTROPHIL
_43_2971.jpeg,NEUTROPHIL
_43_3930.jpeg,NEUTROPHIL
_43_4238.jpeg,NEUTROPHIL
_43_5093.jpeg,NEUTROPHIL
_43_5349.jpeg,NEUTROPHIL
_43_5615.jpeg,NEUTROPHIL
_43_7015.jpeg,NEUTROPHIL
_43_7387.jpeg,NEUTROPHIL
_43_8093.jpeg,NEUTROPHIL
_43_9276.jpeg,NEUTROPHIL
_44_1057.jpeg,NEUTROPHIL
_44_1117.jpeg,NEUTROPHIL
_44_197.jpeg,NEUTROPHIL
_44_391.jpeg,EOSINOPHIL
_44_4777.jpeg,NEUTROPHIL
_44_4938.jpeg,NEUTROPHIL
_44_5827.jpeg,NEUTROPHIL
_44_7838.jpeg,NEUTROPHIL
_44_8334.jpeg,EOSINOPHIL
_44_8726.jpeg,NEUTROPHIL
_44_8863.jpeg,NEUTROPHIL
_44_9482.jpeg,NEUTROPHIL
_44_9907.jpeg,EOSINOPHIL
_45_2291.jpeg,NEUTROPHIL
_45_2804.jpeg,NEUTROPHIL
_45_3074.jpeg,NEUTROPHIL
_45_4113.jpeg,NEUTROPHIL
_45_4365.jpeg,NEUTROPHIL
_45_5005.jpeg,EOSINOPHIL
_45_5231.jpeg,NEUTROPHIL
_45_6826.jpeg,NEUTROPHIL
_45_8275.jpeg,NEUTROPHIL
_45_8293.jpeg,NEUTROPHIL
_45_8772.jpeg,NEUTROPHIL
_45_8831.jpeg,EOSINOPHIL
_45_9698.jpeg,NEUTROPHIL
_46_110.jpeg,NEUTROPHIL
_46_1148.jpeg,NEUTROPHIL
_46_1902.jpeg,NEUTROPHIL
_46_203.jpeg,NEUTROPHIL
_46_2202.jpeg,NEUTROPHIL
_46_32.jpeg,NEUTROPHIL
_46_4182.jpeg,NEUTROPHIL
_46_4400.jpeg,NEUTROPHIL
_46_5419.jpeg,NEUTROPHIL
_46_5552.jpeg,NEUTROPHIL
_46_6437.jpeg,NEUTROPHIL
_46_6780.jpeg,NEUTROPHIL
_46_8259.jpeg,NEUTROPHIL
_47_240.jpeg,NEUTROPHIL
_47_2648.jpeg,NEUTROPHIL
_47_2700.jpeg,NEUTROPHIL
_47_4794.jpeg,NEUTROPHIL
_47_4975.jpeg,NEUTROPHIL
_47_5343.jpeg,NEUTROPHIL
_47_6257.jpeg,NEUTROPHIL
_47_7500.jpeg,NEUTROPHIL
_47_7501.jpeg,NEUTROPHIL
_47_793.jpeg,NEUTROPHIL
_47_7947.jpeg,NEUTROPHIL
_47_8688.jpeg,NEUTROPHIL
_47_8902.jpeg,NEUTROPHIL
_4_1001.jpeg,EOSINOPHIL
_4_1004.jpeg,LYMPHOCYTE
_4_1219.jpeg,LYMPHOCYTE
_4_1239.jpeg,LYMPHOCYTE
_4_1249.jpeg,EOSINOPHIL
_4_1361.jpeg,EOSINOPHIL
_4_1424.jpeg,LYMPHOCYTE
_4_1425.jpeg,LYMPHOCYTE
_4_1426.jpeg,LYMPHOCYTE
_4_1439.jpeg,EOSINOPHIL
_4_1448.jpeg,LYMPHOCYTE
_4_1591.jpeg,EOSINOPHIL
_4_1649.jpeg,LYMPHOCYTE
_4_1697.jpeg,LYMPHOCYTE
_4_1720.jpeg,NEUTROPHIL
_4_1765.jpeg,LYMPHOCYTE
_4_1767.jpeg,EOSINOPHIL
_4_1770.jpeg,LYMPHOCYTE
_4_1786.jpeg,LYMPHOCYTE
_4_1865.jpeg,LYMPHOCYTE
_4_1955.jpeg,LYMPHOCYTE
_4_1963.jpeg,EOSINOPHIL
_4_2036.jpeg,LYMPHOCYTE
_4_2060.jpeg,LYMPHOCYTE
_4_2142.jpeg,LYMPHOCYTE
_4_2173.jpeg,LYMPHOCYTE
_4_2210.jpeg,LYMPHOCYTE
_4_2380.jpeg,LYMPHOCYTE
_4_239.jpeg,NEUTROPHIL
_4_2404.jpeg,EOSINOPHIL
_4_2428.jpeg,LYMPHOCYTE
_4_2434.jpeg,EOSINOPHIL
_4_2461.jpeg,LYMPHOCYTE
_4_2541.jpeg,LYMPHOCYTE
_4_2564.jpeg,LYMPHOCYTE
_4_2607.jpeg,LYMPHOCYTE
_4_2714.jpeg,LYMPHOCYTE
_4_2755.jpeg,EOSINOPHIL
_4_2762.jpeg,LYMPHOCYTE
_4_2810.jpeg,LYMPHOCYTE
_4_2919.jpeg,LYMPHOCYTE
_4_294.jpeg,NEUTROPHIL
_4_2965.jpeg,LYMPHOCYTE
_4_3015.jpeg,NEUTROPHIL
_4_3143.jpeg,LYMPHOCYTE
_4_3150.jpeg,EOSINOPHIL
_4_3226.jpeg,EOSINOPHIL
_4_3370.jpeg,NEUTROPHIL
_4_3450.jpeg,LYMPHOCYTE
_4_3507.jpeg,EOSINOPHIL
_4_3550.jpeg,EOSINOPHIL
_4_3568.jpeg,LYMPHOCYTE
_4_3597.jpeg,NEUTROPHIL
_4_3666.jpeg,LYMPHOCYTE
_4_3721.jpeg,NEUTROPHIL
_4_3770.jpeg,LYMPHOCYTE
_4_3813.jpeg,NEUTROPHIL
_4_3842.jpeg,LYMPHOCYTE
_4_3933.jpeg,LYMPHOCYTE
_4_408.jpeg,EOSINOPHIL
_4_4124.jpeg,LYMPHOCYTE
_4_4269.jpeg,LYMPHOCYTE
_4_4287.jpeg,EOSINOPHIL
_4_4422.jpeg,LYMPHOCYTE
_4_4433.jpeg,EOSINOPHIL
_4_4463.jpeg,NEUTROPHIL
_4_4529.jpeg,EOSINOPHIL
_4_4563.jpeg,EOSINOPHIL
_4_4611.jpeg,LYMPHOCYTE
_4_4634.jpeg,EOSINOPHIL
_4_4703.jpeg,LYMPHOCYTE
_4_4763.jpeg,LYMPHOCYTE
_4_4798.jpeg,EOSINOPHIL
_4_4854.jpeg,LYMPHOCYTE
_4_4865.jpeg,EOSINOPHIL
_4_4937.jpeg,LYMPHOCYTE
_4_4971.jpeg,LYMPHOCYTE
_4_5070.jpeg,LYMPHOCYTE
_4_5147.jpeg,EOSINOPHIL
_4_5214.jpeg,LYMPHOCYTE
_4_5262.jpeg,EOSINOPHIL
_4_5304.jpeg,LYMPHOCYTE
_4_5321.jpeg,LYMPHOCYTE
_4_5443.jpeg,LYMPHOCYTE
_4_5458.jpeg,LYMPHOCYTE
_4_5585.jpeg,EOSINOPHIL
_4_5589.jpeg,LYMPHOCYTE
_4_5685.jpeg,LYMPHOCYTE
_4_5735.jpeg,LYMPHOCYTE
_4_5790.jpeg,LYMPHOCYTE
_4_5818.jpeg,LYMPHOCYTE
_4_5879.jpeg,LYMPHOCYTE
_4_6062.jpeg,LYMPHOCYTE
_4_6081.jpeg,EOSINOPHIL
_4_6113.jpeg,LYMPHOCYTE
_4_616.jpeg,EOSINOPHIL
_4_6265.jpeg,EOSINOPHIL
_4_63.jpeg,LYMPHOCYTE
_4_6342.jpeg,LYMPHOCYTE
_4_636.jpeg,LYMPHOCYTE
_4_6409.jpeg,LYMPHOCYTE
_4_6412.jpeg,EOSINOPHIL
_4_6441.jpeg,LYMPHOCYTE
_4_6476.jpeg,EOSINOPHIL
_4_6637.jpeg,LYMPHOCYTE
_4_6650.jpeg,EOSINOPHIL
_4_6651.jpeg,LYMPHOCYTE
_4_6722.jpeg,LYMPHOCYTE
_4_6826.jpeg,EOSINOPHIL
_4_6842.jpeg,LYMPHOCYTE
_4_6855.jpeg,LYMPHOCYTE
_4_69.jpeg,EOSINOPHIL
_4_6920.jpeg,EOSINOPHIL
_4_6993.jpeg,LYMPHOCYTE
_4_7022.jpeg,EOSINOPHIL
_4_7027.jpeg,EOSINOPHIL
_4_7146.jpeg,LYMPHOCYTE
_4_7195.jpeg,EOSINOPHIL
_4_7206.jpeg,EOSINOPHIL
_4_7379.jpeg,EOSINOPHIL
_4_7399.jpeg,EOSINOPHIL
_4_7426.jpeg,EOSINOPHIL
_4_750.jpeg,LYMPHOCYTE
_4_7544.jpeg,EOSINOPHIL
_4_7574.jpeg,LYMPHOCYTE
_4_761.jpeg,LYMPHOCYTE
_4_7637.jpeg,LYMPHOCYTE
_4_7938.jpeg,NEUTROPHIL
_4_7954.jpeg,NEUTROPHIL
_4_7955.jpeg,LYMPHOCYTE
_4_7981.jpeg,LYMPHOCYTE
_4_7999.jpeg,LYMPHOCYTE
_4_8019.jpeg,NEUTROPHIL
_4_8033.jpeg,EOSINOPHIL
_4_8060.jpeg,LYMPHOCYTE
_4_8149.jpeg,LYMPHOCYTE
_4_821.jpeg,LYMPHOCYTE
_4_8316.jpeg,LYMPHOCYTE
_4_834.jpeg,LYMPHOCYTE
_4_8453.jpeg,LYMPHOCYTE
_4_8468.jpeg,LYMPHOCYTE
_4_8523.jpeg,LYMPHOCYTE
_4_8652.jpeg,LYMPHOCYTE
_4_8655.jpeg,EOSINOPHIL
_4_8663.jpeg,LYMPHOCYTE
_4_8809.jpeg,LYMPHOCYTE
_4_8810.jpeg,LYMPHOCYTE
_4_8957.jpeg,LYMPHOCYTE
_4_8988.jpeg,LYMPHOCYTE
_4_9000.jpeg,LYMPHOCYTE
_4_9023.jpeg,LYMPHOCYTE
_4_9099.jpeg,EOSINOPHIL
_4_918.jpeg,LYMPHOCYTE
_4_9184.jpeg,EOSINOPHIL
_4_9345.jpeg,LYMPHOCYTE
_4_9351.jpeg,LYMPHOCYTE
_4_9471.jpeg,LYMPHOCYTE
_4_9475.jpeg,LYMPHOCYTE
_4_9483.jpeg,NEUTROPHIL
_4_9618.jpeg,LYMPHOCYTE
_4_9727.jpeg,LYMPHOCYTE
_4_9758.jpeg,LYMPHOCYTE
_4_9971.jpeg,EOSINOPHIL
_5_1029.jpeg,LYMPHOCYTE
_5_1034.jpeg,EOSINOPHIL
_5_1070.jpeg,LYMPHOCYTE
_5_113.jpeg,EOSINOPHIL
_5_1139.jpeg,LYMPHOCYTE
_5_1174.jpeg,LYMPHOCYTE
_5_1304.jpeg,LYMPHOCYTE
_5_1427.jpeg,LYMPHOCYTE
_5_1501.jpeg,LYMPHOCYTE
_5_1699.jpeg,EOSINOPHIL
_5_1737.jpeg,LYMPHOCYTE
_5_1758.jpeg,LYMPHOCYTE
_5_1761.jpeg,LYMPHOCYTE
_5_1763.jpeg,LYMPHOCYTE
_5_1766.jpeg,EOSINOPHIL
_5_1812.jpeg,LYMPHOCYTE
_5_1911.jpeg,LYMPHOCYTE
_5_2085.jpeg,LYMPHOCYTE
_5_2090.jpeg,EOSINOPHIL
_5_2171.jpeg,LYMPHOCYTE
_5_2244.jpeg,LYMPHOCYTE
_5_2263.jpeg,LYMPHOCYTE
_5_2284.jpeg,EOSINOPHIL
_5_231.jpeg,NEUTROPHIL
_5_2313.jpeg,EOSINOPHIL
_5_2331.jpeg,EOSINOPHIL
_5_2333.jpeg,LYMPHOCYTE
_5_2363.jpeg,EOSINOPHIL
_5_2438.jpeg,LYMPHOCYTE
_5_2461.jpeg,LYMPHOCYTE
_5_2465.jpeg,EOSINOPHIL
_5_2470.jpeg,NEUTROPHIL
_5_2500.jpeg,LYMPHOCYTE
_5_2681.jpeg,EOSINOPHIL
_5_2708.jpeg,LYMPHOCYTE
_5_2721.jpeg,EOSINOPHIL
_5_2746.jpeg,LYMPHOCYTE
_5_2802.jpeg,LYMPHOCYTE
_5_2861.jpeg,LYMPHOCYTE
_5_2929.jpeg,LYMPHOCYTE
_5_2966.jpeg,EOSINOPHIL
_5_2987.jpeg,LYMPHOCYTE
_5_303.jpeg,EOSINOPHIL
_5_3144.jpeg,LYMPHOCYTE
_5_3167.jpeg,NEUTROPHIL
_5_3197.jpeg,LYMPHOCYTE
_5_3205.jpeg,LYMPHOCYTE
_5_3208.jpeg,EOSINOPHIL
_5_3219.jpeg,LYMPHOCYTE
_5_3239.jpeg,LYMPHOCYTE
_5_3253.jpeg,NEUTROPHIL
_5_3327.jpeg,LYMPHOCYTE
_5_3338.jpeg,EOSINOPHIL
_5_3374.jpeg,LYMPHOCYTE
_5_3600.jpeg,NEUTROPHIL
_5_3931.jpeg,EOSINOPHIL
_5_4018.jpeg,LYMPHOCYTE
_5_4036.jpeg,NEUTROPHIL
_5_4066.jpeg,LYMPHOCYTE
_5_408.jpeg,EOSINOPHIL
_5_4105.jpeg,LYMPHOCYTE
_5_4122.jpeg,LYMPHOCYTE
_5_4141.jpeg,LYMPHOCYTE
_5_4166.jpeg,LYMPHOCYTE
_5_4208.jpeg,LYMPHOCYTE
_5_4223.jpeg,LYMPHOCYTE
_5_4276.jpeg,LYMPHOCYTE
_5_4277.jpeg,LYMPHOCYTE
_5_4335.jpeg,EOSINOPHIL
_5_4406.jpeg,NEUTROPHIL
_5_4472.jpeg,LYMPHOCYTE
_5_4501.jpeg,LYMPHOCYTE
_5_452.jpeg,EOSINOPHIL
_5_4799.jpeg,LYMPHOCYTE
_5_4902.jpeg,EOSINOPHIL
_5_4914.jpeg,LYMPHOCYTE
_5_5027.jpeg,LYMPHOCYTE
_5_5084.jpeg,LYMPHOCYTE
_5_5108.jpeg,LYMPHOCYTE
_5_5114.jpeg,LYMPHOCYTE
_5_5151.jpeg,LYMPHOCYTE
_5_5171.jpeg,EOSINOPHIL
_5_518.jpeg,EOSINOPHIL
_5_5279.jpeg,LYMPHOCYTE
_5_5344.jpeg,LYMPHOCYTE
_5_5349.jpeg,LYMPHOCYTE
_5_5365.jpeg,LYMPHOCYTE
_5_5372.jpeg,EOSINOPHIL
_5_5558.jpeg,LYMPHOCYTE
_5_5644.jpeg,LYMPHOCYTE
_5_5711.jpeg,EOSINOPHIL
_5_5846.jpeg,LYMPHOCYTE
_5_5856.jpeg,EOSINOPHIL
_5_5913.jpeg,LYMPHOCYTE
_5_5985.jpeg,LYMPHOCYTE
_5_6044.jpeg,LYMPHOCYTE
_5_625.jpeg,EOSINOPHIL
_5_627.jpeg,LYMPHOCYTE
_5_6312.jpeg,LYMPHOCYTE
_5_6366.jpeg,EOSINOPHIL
_5_6549.jpeg,LYMPHOCYTE
_5_6572.jpeg,LYMPHOCYTE
_5_6696.jpeg,LYMPHOCYTE
_5_6701.jpeg,EOSINOPHIL
_5_6796.jpeg,LYMPHOCYTE
_5_6817.jpeg,EOSINOPHIL
_5_7030.jpeg,LYMPHOCYTE
_5_7063.jpeg,EOSINOPHIL
_5_7101.jpeg,LYMPHOCYTE
_5_7113.jpeg,EOSINOPHIL
_5_7157.jpeg,LYMPHOCYTE
_5_7193.jpeg,LYMPHOCYTE
_5_7199.jpeg,LYMPHOCYTE
_5_7339.jpeg,EOSINOPHIL
_5_7340.jpeg,LYMPHOCYTE
_5_7461.jpeg,LYMPHOCYTE
_5_7515.jpeg,LYMPHOCYTE
_5_7586.jpeg,EOSINOPHIL
_5_7595.jpeg,LYMPHOCYTE
_5_7617.jpeg,LYMPHOCYTE
_5_7634.jpeg,LYMPHOCYTE
_5_7636.jpeg,EOSINOPHIL
_5_770.jpeg,EOSINOPHIL
_5_7714.jpeg,EOSINOPHIL
_5_7722.jpeg,EOSINOPHIL
_5_7730.jpeg,EOSINOPHIL
_5_779.jpeg,EOSINOPHIL
_5_8308.jpeg,EOSINOPHIL
_5_8417.jpeg,LYMPHOCYTE
_5_8465.jpeg,LYMPHOCYTE
_5_8537.jpeg,EOSINOPHIL
_5_8557.jpeg,LYMPHOCYTE
_5_8607.jpeg,NEUTROPHIL
_5_8702.jpeg,EOSINOPHIL
_5_8720.jpeg,EOSINOPHIL
_5_876.jpeg,LYMPHOCYTE
_5_8802.jpeg,NEUTROPHIL
_5_8803.jpeg,LYMPHOCYTE
_5_8899.jpeg,LYMPHOCYTE
_5_890.jpeg,LYMPHOCYTE
_5_8928.jpeg,NEUTROPHIL
_5_912.jpeg,EOSINOPHIL
_5_9173.jpeg,LYMPHOCYTE
_5_9176.jpeg,LYMPHOCYTE
_5_9201.jpeg,LYMPHOCYTE
_5_9208.jpeg,LYMPHOCYTE
_5_9257.jpeg,LYMPHOCYTE
_5_9302.jpeg,LYMPHOCYTE
_5_9321.jpeg,LYMPHOCYTE
_5_9347.jpeg,LYMPHOCYTE
_5_9361.jpeg,LYMPHOCYTE
_5_937.jpeg,LYMPHOCYTE
_5_9420.jpeg,EOSINOPHIL
_5_9632.jpeg,EOSINOPHIL
_5_9665.jpeg,LYMPHOCYTE
_5_9755.jpeg,LYMPHOCYTE
_5_9809.jpeg,EOSINOPHIL
_5_9903.jpeg,EOSINOPHIL
_5_9916.jpeg,EOSINOPHIL
_5_994.jpeg,LYMPHOCYTE
_5_9974.jpeg,LYMPHOCYTE
_5_9980.jpeg,EOSINOPHIL
_5_9993.jpeg,LYMPHOCYTE
_6_1059.jpeg,EOSINOPHIL
_6_174.jpeg,EOSINOPHIL
_6_1893.jpeg,NEUTROPHIL
_6_1951.jpeg,EOSINOPHIL
_6_2161.jpeg,EOSINOPHIL
_6_2302.jpeg,LYMPHOCYTE
_6_2507.jpeg,EOSINOPHIL
_6_252.jpeg,EOSINOPHIL
_6_2524.jpeg,EOSINOPHIL
_6_2609.jpeg,EOSINOPHIL
_6_2677.jpeg,EOSINOPHIL
_6_2787.jpeg,EOSINOPHIL
_6_3100.jpeg,EOSINOPHIL
_6_3140.jpeg,EOSINOPHIL
_6_3161.jpeg,EOSINOPHIL
_6_3231.jpeg,EOSINOPHIL
_6_3939.jpeg,EOSINOPHIL
_6_4062.jpeg,EOSINOPHIL
_6_4318.jpeg,EOSINOPHIL
_6_4338.jpeg,NEUTROPHIL
_6_4478.jpeg,EOSINOPHIL
_6_4552.jpeg,NEUTROPHIL
_6_4766.jpeg,EOSINOPHIL
_6_4942.jpeg,EOSINOPHIL
_6_5240.jpeg,EOSINOPHIL
_6_5352.jpeg,EOSINOPHIL
_6_5510.jpeg,EOSINOPHIL
_6_6152.jpeg,EOSINOPHIL
_6_6174.jpeg,EOSINOPHIL
_6_6208.jpeg,EOSINOPHIL
_6_6218.jpeg,NEUTROPHIL
_6_6244.jpeg,EOSINOPHIL
_6_6421.jpeg,EOSINOPHIL
_6_6591.jpeg,NEUTROPHIL
_6_6731.jpeg,NEUTROPHIL
_6_6886.jpeg,EOSINOPHIL
_6_6902.jpeg,EOSINOPHIL
_6_7001.jpeg,EOSINOPHIL
_6_7063.jpeg,NEUTROPHIL
_6_7069.jpeg,EOSINOPHIL
_6_7543.jpeg,EOSINOPHIL
_6_7794.jpeg,NEUTROPHIL
_6_7853.jpeg,EOSINOPHIL
_6_8240.jpeg,EOSINOPHIL
_6_8507.jpeg,EOSINOPHIL
_6_869.jpeg,EOSINOPHIL
_6_8703.jpeg,EOSINOPHIL
_6_8706.jpeg,EOSINOPHIL
_6_8893.jpeg,EOSINOPHIL
_6_8922.jpeg,EOSINOPHIL
_6_8929.jpeg,EOSINOPHIL
_6_8938.jpeg,EOSINOPHIL
_6_8952.jpeg,EOSINOPHIL
_6_896.jpeg,EOSINOPHIL
_6_9084.jpeg,EOSINOPHIL
_6_9135.jpeg,EOSINOPHIL
_6_9248.jpeg,NEUTROPHIL
_6_9392.jpeg,EOSINOPHIL
_6_9405.jpeg,EOSINOPHIL
_6_9529.jpeg,EOSINOPHIL
_6_9548.jpeg,NEUTROPHIL
_7_109.jpeg,EOSINOPHIL
_7_1105.jpeg,EOSINOPHIL
_7_1107.jpeg,EOSINOPHIL
_7_1210.jpeg,EOSINOPHIL
_7_1377.jpeg,EOSINOPHIL
_7_1440.jpeg,EOSINOPHIL
_7_203.jpeg,EOSINOPHIL
_7_2063.jpeg,NEUTROPHIL
_7_228.jpeg,NEUTROPHIL
_7_2893.jpeg,EOSINOPHIL
_7_2926.jpeg,EOSINOPHIL
_7_3002.jpeg,NEUTROPHIL
_7_3063.jpeg,EOSINOPHIL
_7_3371.jpeg,EOSINOPHIL
_7_3400.jpeg,EOSINOPHIL
_7_3605.jpeg,EOSINOPHIL
_7_3672.jpeg,EOSINOPHIL
_7_4068.jpeg,EOSINOPHIL
_7_4187.jpeg,NEUTROPHIL
_7_4236.jpeg,EOSINOPHIL
_7_4277.jpeg,EOSINOPHIL
_7_4319.jpeg,EOSINOPHIL
_7_4334.jpeg,NEUTROPHIL
_7_4714.jpeg,EOSINOPHIL
_7_4728.jpeg,EOSINOPHIL
_7_4817.jpeg,EOSINOPHIL
_7_4822.jpeg,EOSINOPHIL
_7_4876.jpeg,EOSINOPHIL
_7_4910.jpeg,EOSINOPHIL
_7_5099.jpeg,EOSINOPHIL
_7_5399.jpeg,EOSINOPHIL
_7_5679.jpeg,EOSINOPHIL
_7_5760.jpeg,EOSINOPHIL
_7_6125.jpeg,EOSINOPHIL
_7_6291.jpeg,EOSINOPHIL
_7_6366.jpeg,EOSINOPHIL
_7_6431.jpeg,EOSINOPHIL
_7_6454.jpeg,EOSINOPHIL
_7_6460.jpeg,EOSINOPHIL
_7_6742.jpeg,EOSINOPHIL
_7_679.jpeg,NEUTROPHIL
_7_6860.jpeg,NEUTROPHIL
_7_6960.jpeg,EOSINOPHIL
_7_7071.jpeg,EOSINOPHIL
_7_7168.jpeg,EOSINOPHIL
_7_7224.jpeg,EOSINOPHIL
_7_7620.jpeg,EOSINOPHIL
_7_7718.jpeg,EOSINOPHIL
_7_7719.jpeg,NEUTROPHIL
_7_7966.jpeg,NEUTROPHIL
_7_8066.jpeg,EOSINOPHIL
_7_8409.jpeg,EOSINOPHIL
_7_8646.jpeg,NEUTROPHIL
_7_8662.jpeg,NEUTROPHIL
_7_8998.jpeg,EOSINOPHIL
_7_9265.jpeg,NEUTROPHIL
_7_9769.jpeg,EOSINOPHIL
_7_9839.jpeg,EOSINOPHIL
_7_986.jpeg,EOSINOPHIL
_7_9863.jpeg,EOSINOPHIL
_7_9976.jpeg,EOSINOPHIL
_8_1197.jpeg,NEUTROPHIL
_8_1329.jpeg,EOSINOPHIL
_8_1469.jpeg,EOSINOPHIL
_8_2116.jpeg,EOSINOPHIL
_8_2208.jpeg,NEUTROPHIL
_8_2394.jpeg,NEUTROPHIL
_8_2522.jpeg,EOSINOPHIL
_8_3082.jpeg,EOSINOPHIL
_8_311.jpeg,NEUTROPHIL
_8_337.jpeg,EOSINOPHIL
_8_3531.jpeg,EOSINOPHIL
_8_3550.jpeg,EOSINOPHIL
_8_3764.jpeg,EOSINOPHIL
_8_3842.jpeg,EOSINOPHIL
_8_3942.jpeg,EOSINOPHIL
_8_4087.jpeg,EOSINOPHIL
_8_4160.jpeg,NEUTROPHIL
_8_4515.jpeg,EOSINOPHIL
_8_4526.jpeg,EOSINOPHIL
_8_4566.jpeg,EOSINOPHIL
_8_4673.jpeg,EOSINOPHIL
_8_4721.jpeg,EOSINOPHIL
_8_4745.jpeg,EOSINOPHIL
_8_5028.jpeg,EOSINOPHIL
_8_5061.jpeg,EOSINOPHIL
_8_5290.jpeg,EOSINOPHIL
_8_5558.jpeg,NEUTROPHIL
_8_5743.jpeg,EOSINOPHIL
_8_5997.jpeg,NEUTROPHIL
_8_6047.jpeg,EOSINOPHIL
_8_6171.jpeg,EOSINOPHIL
_8_6200.jpeg,EOSINOPHIL
_8_6304.jpeg,NEUTROPHIL
_8_6314.jpeg,NEUTROPHIL
_8_647.jpeg,EOSINOPHIL
_8_6603.jpeg,NEUTROPHIL
_8_6615.jpeg,EOSINOPHIL
_8_6636.jpeg,EOSINOPHIL
_8_6700.jpeg,EOSINOPHIL
_8_6780.jpeg,EOSINOPHIL
_8_6861.jpeg,NEUTROPHIL
_8_7260.jpeg,EOSINOPHIL
_8_7326.jpeg,EOSINOPHIL
_8_7909.jpeg,EOSINOPHIL
_8_8010.jpeg,EOSINOPHIL
_8_8188.jpeg,EOSINOPHIL
_8_843.jpeg,EOSINOPHIL
_8_8456.jpeg,EOSINOPHIL
_8_8461.jpeg,EOSINOPHIL
_8_8637.jpeg,EOSINOPHIL
_8_875.jpeg,EOSINOPHIL
_8_8885.jpeg,EOSINOPHIL
_8_9040.jpeg,EOSINOPHIL
_8_9065.jpeg,EOSINOPHIL
_8_9194.jpeg,EOSINOPHIL
_8_9281.jpeg,NEUTROPHIL
_8_9488.jpeg,NEUTROPHIL
_8_963.jpeg,LYMPHOCYTE
_8_9964.jpeg,NEUTROPHIL
_8_9966.jpeg,EOSINOPHIL
_8_9981.jpeg,EOSINOPHIL
_9_1133.jpeg,EOSINOPHIL
_9_1215.jpeg,EOSINOPHIL
_9_1242.jpeg,EOSINOPHIL
_9_1746.jpeg,EOSINOPHIL
_9_1911.jpeg,EOSINOPHIL
_9_1918.jpeg,NEUTROPHIL
_9_2176.jpeg,EOSINOPHIL
_9_2182.jpeg,NEUTROPHIL
_9_2184.jpeg,EOSINOPHIL
_9_2898.jpeg,EOSINOPHIL
_9_2997.jpeg,EOSINOPHIL
_9_3126.jpeg,NEUTROPHIL
_9_327.jpeg,EOSINOPHIL
_9_3273.jpeg,EOSINOPHIL
_9_3415.jpeg,NEUTROPHIL
_9_3688.jpeg,EOSINOPHIL
_9_3746.jpeg,EOSINOPHIL
_9_3788.jpeg,EOSINOPHIL
_9_383.jpeg,EOSINOPHIL
_9_3847.jpeg,EOSINOPHIL
_9_4025.jpeg,EOSINOPHIL
_9_4168.jpeg,NEUTROPHIL
_9_4192.jpeg,NEUTROPHIL
_9_4384.jpeg,EOSINOPHIL
_9_4638.jpeg,EOSINOPHIL
_9_4776.jpeg,EOSINOPHIL
_9_4815.jpeg,EOSINOPHIL
_9_4854.jpeg,EOSINOPHIL
_9_5411.jpeg,EOSINOPHIL
_9_5471.jpeg,EOSINOPHIL
_9_5549.jpeg,NEUTROPHIL
_9_5775.jpeg,EOSINOPHIL
_9_5880.jpeg,NEUTROPHIL
_9_5941.jpeg,EOSINOPHIL
_9_5954.jpeg,EOSINOPHIL
_9_6116.jpeg,EOSINOPHIL
_9_6468.jpeg,EOSINOPHIL
_9_6686.jpeg,EOSINOPHIL
_9_6750.jpeg,NEUTROPHIL
_9_6796.jpeg,NEUTROPHIL
_9_6803.jpeg,EOSINOPHIL
_9_6932.jpeg,EOSINOPHIL
_9_6997.jpeg,EOSINOPHIL
_9_7223.jpeg,EOSINOPHIL
_9_7234.jpeg,EOSINOPHIL
_9_7683.jpeg,EOSINOPHIL
_9_7698.jpeg,EOSINOPHIL
_9_782.jpeg,EOSINOPHIL
_9_8066.jpeg,EOSINOPHIL
_9_8505.jpeg,EOSINOPHIL
_9_8524.jpeg,EOSINOPHIL
_9_8628.jpeg,EOSINOPHIL
_9_9174.jpeg,EOSINOPHIL
_9_920.jpeg,EOSINOPHIL
_9_9293.jpeg,EOSINOPHIL
_9_9569.jpeg,EOSINOPHIL
_9_9587.jpeg,NEUTROPHIL
_9_9619.jpeg,EOSINOPHIL
_9_9656.jpeg,EOSINOPHIL
_9_9821.jpeg,NEUTROPHIL
_9_9946.jpeg,NEUTROPHIL
